%!PS-Adobe-2.0 EPSF-2.0
%%Title: tmin2
%%Creator: fig2dev Version 3.1 Patchlevel 2
%%CreationDate: Mon Aug 31 23:51:40 1998
%%For: alexey@moscow (Alexey Vikhlinin)
%Magnification: 1.00
%%Orientation: Portrait
%%BoundingBox: 0 0 520 151
%%Pages: 0
%%BeginSetup
%%IncludeFeature: *PageSize Letter
%%EndSetup
%%EndComments
/$F2psDict 200 dict def
$F2psDict begin
$F2psDict /mtrx matrix put
/col-1 {0 setgray} bind def
/col0 {0.000 0.000 0.000 srgb} bind def
/col1 {0.000 0.000 1.000 srgb} bind def
/col2 {0.000 1.000 0.000 srgb} bind def
/col3 {0.000 1.000 1.000 srgb} bind def
/col4 {1.000 0.000 0.000 srgb} bind def
/col5 {1.000 0.000 1.000 srgb} bind def
/col6 {1.000 1.000 0.000 srgb} bind def
/col7 {1.000 1.000 1.000 srgb} bind def
/col8 {0.000 0.000 0.560 srgb} bind def
/col9 {0.000 0.000 0.690 srgb} bind def
/col10 {0.000 0.000 0.820 srgb} bind def
/col11 {0.530 0.810 1.000 srgb} bind def
/col12 {0.000 0.560 0.000 srgb} bind def
/col13 {0.000 0.690 0.000 srgb} bind def
/col14 {0.000 0.820 0.000 srgb} bind def
/col15 {0.000 0.560 0.560 srgb} bind def
/col16 {0.000 0.690 0.690 srgb} bind def
/col17 {0.000 0.820 0.820 srgb} bind def
/col18 {0.560 0.000 0.000 srgb} bind def
/col19 {0.690 0.000 0.000 srgb} bind def
/col20 {0.820 0.000 0.000 srgb} bind def
/col21 {0.560 0.000 0.560 srgb} bind def
/col22 {0.690 0.000 0.690 srgb} bind def
/col23 {0.820 0.000 0.820 srgb} bind def
/col24 {0.500 0.190 0.000 srgb} bind def
/col25 {0.630 0.250 0.000 srgb} bind def
/col26 {0.750 0.380 0.000 srgb} bind def
/col27 {1.000 0.500 0.500 srgb} bind def
/col28 {1.000 0.630 0.630 srgb} bind def
/col29 {1.000 0.750 0.750 srgb} bind def
/col30 {1.000 0.880 0.880 srgb} bind def
/col31 {1.000 0.840 0.000 srgb} bind def

end
save
-48.0 303.0 translate
1 -1 scale

/cp {closepath} bind def
/ef {eofill} bind def
/gr {grestore} bind def
/gs {gsave} bind def
/sa {save} bind def
/rs {restore} bind def
/l {lineto} bind def
/m {moveto} bind def
/rm {rmoveto} bind def
/n {newpath} bind def
/s {stroke} bind def
/sh {show} bind def
/slc {setlinecap} bind def
/slj {setlinejoin} bind def
/slw {setlinewidth} bind def
/srgb {setrgbcolor} bind def
/rot {rotate} bind def
/sc {scale} bind def
/sd {setdash} bind def
/ff {findfont} bind def
/sf {setfont} bind def
/scf {scalefont} bind def
/sw {stringwidth} bind def
/tr {translate} bind def
/tnt {dup dup currentrgbcolor
  4 -2 roll dup 1 exch sub 3 -1 roll mul add
  4 -2 roll dup 1 exch sub 3 -1 roll mul add
  4 -2 roll dup 1 exch sub 3 -1 roll mul add srgb}
  bind def
/shd {dup dup currentrgbcolor 4 -2 roll mul 4 -2 roll mul
  4 -2 roll mul srgb} bind def
/$F2psBegin {$F2psDict begin /$F2psEnteredState save def} def
/$F2psEnd {$F2psEnteredState restore end} def
%%EndProlog

$F2psBegin
10 setmiterlimit
n 0 792 m 0 0 l 612 0 l 612 792 l cp clip
 0.06000 0.06000 sc
7.500 slw
% Polyline
 [66.7] 0 sd
n 825 4200 m 9375 4200 l gs col-1 s gr  [] 0 sd
% Polyline
 [66.7] 0 sd
n 825 5025 m 9375 5025 l gs col-1 s gr  [] 0 sd
% Polyline
 [66.7] 0 sd
n 825 3225 m 9375 3225 l gs col-1 s gr  [] 0 sd
% Interp Spline
gs n 1125 4950 m
	1251.5 4773.7 1307.8 4698.7 1350 4650 curveto
	1397.8 4594.9 1523.7 4476.3 1575 4425 curveto
	1643.3 4356.7 1799.4 4187.0 1875 4125 curveto
	1971.4 4046.0 2208.3 3876.6 2325 3825 curveto
	2458.4 3766.0 2777.1 3680.9 2925 3675 curveto
	3034.1 3670.6 3272.7 3731.3 3375 3750 curveto
	3460.7 3765.7 3665.8 3796.1 3750 3825 curveto
	3823.8 3850.3 3977.3 3948.1 4050 3975 curveto
	4117.0 3999.8 4278.8 4041.2 4350 4050 curveto
	4419.1 4058.5 4580.4 4061.3 4650 4050 curveto
	4705.0 4041.1 4826.1 4005.2 4875 3975 curveto
	4918.8 3947.9 4987.2 3856.0 5025 3825 curveto
	5073.2 3785.5 5201.8 3714.5 5250 3675 curveto
	5287.8 3644.0 5368.1 3561.7 5400 3525 curveto
	5456.3 3460.1 5568.7 3289.9 5625 3225 curveto
	5672.8 3169.9 5793.3 3046.5 5850 3000 curveto
	5898.2 2960.5 6021.5 2881.1 6075 2850 curveto
	6174.6 2792.2 6412.2 2660.2 6525 2625 curveto
	6643.9 2587.8 6927.3 2553.2 7050 2550 curveto
	7241.7 2545.1 7687.6 2595.8 7875 2625 curveto
	8031.4 2649.4 8398.9 2721.3 8550 2775 curveto
	8660.0 2814.0 8902.2 2937.4 9000 3000 curveto
	9093.4 3059.8 9293.2 3226.8 9375 3300 curveto
	9388.5 3312.1 9407.3 3330.9 9450 3375 curveto
 gs col-1 s gr
 gr

% Interp Spline
gs  [15 50.0] 50.0 sd
n 3975 5025 m
	4198.1 4814.6 4291.9 4720.9 4350 4650 curveto
	4389.5 4601.8 4457.8 4472.0 4500 4425 curveto
	4591.4 4323.3 4855.4 4146.5 4950 4050 curveto
	5008.1 3990.7 5083.1 3896.9 5250 3675 curveto
 gs col-1 s gr
 gr
 [] 0 sd
% Interp Spline
gs  [15 50.0] 50.0 sd
n 4050 3975 m
	4271.3 4096.9 4365.0 4153.2 4425 4200 curveto
	4483.2 4245.4 4594.9 4377.2 4650 4425 curveto
	4714.9 4481.3 4878.9 4602.2 4950 4650 curveto
	5032.9 4705.8 5240.8 4821.7 5325 4875 curveto
	5364.1 4899.7 5420.3 4937.2 5550 5025 curveto
 gs col-1 s gr
 gr
 [] 0 sd
/Times-Roman ff 180.00 scf sf
825 4950 m
gs 1 -1 sc (0) col-1 sh gr
/Times-Roman ff 180.00 scf sf
825 3150 m
gs 1 -1 sc (4.5sigma) col-1 sh gr
/Times-Roman ff 180.00 scf sf
825 4125 m
gs 1 -1 sc (2sigma) col-1 sh gr
$F2psEnd
rs
