%!PS-Adobe-2.0 EPSF-2.0
%%Creator: SM
%%BoundingBox: 18 144 592 718
%%DocumentFonts: Helvetica
%%EndComments
 20 dict begin
72 300 div dup scale
1 setlinejoin 0 setlinecap
/Courier findfont 55 scalefont setfont 
/B { currentpoint stroke newpath moveto } def
/F { moveto 0 setlinecap} def
/C { CS M 1 1 3 { pop 3 1 roll 255 div } for SET_COLOUR } def
/CS { currentpoint stroke } def
/CF { currentpoint fill } def
/L { lineto } def /M { moveto } def
/P { moveto 0 1 rlineto stroke } def
/T { currentlinecap exch 1 setlinecap show setlinecap } def
errordict /nocurrentpoint { pop 0 0 M currentpoint } put
/SET_COLOUR { pop pop pop } def
 80 600 translate
gsave
CS [] 0 setdash M
CS M 1 100 mul 72 div dup setlinewidth
/P [ /moveto cvx 0 5 -1 roll .05 add dup -2 div 0 exch /rmoveto cvx /rlineto cvx /stroke cvx ] cvx def
 0 0 0 C
 0 0 0 C
CS [] 0 setdash M
292 292 M 2188 292 L
2188 2188 L
292 2188 L
292 292 L
2188 292 L
292 292 M 2188 292 L
292 292 M 292 317 L
387 292 M 387 317 L
481 292 M 481 343 L
402 197 M 412 219 M 455 219 L
493 243 M 493 197 L
496 248 M 496 197 L
496 248 M 469 212 L
508 212 L
486 197 M 503 197 L
534 248 M 527 246 L
522 238 L
520 226 L
520 219 L
522 207 L
527 200 L
534 197 L
539 197 L
546 200 L
551 207 L
554 219 L
554 226 L
551 238 L
546 246 L
539 248 L
534 248 L
530 246 L
527 243 L
525 238 L
522 226 L
522 219 L
525 207 L
527 202 L
530 200 L
534 197 L
539 197 M 544 200 L
546 202 L
549 207 L
551 219 L
551 226 L
549 238 L
546 243 L
544 246 L
539 248 L
576 292 M 576 317 L
671 292 M 671 317 L
766 292 M 766 317 L
861 292 M 861 343 L
781 197 M 791 219 M 834 219 L
853 238 M 856 236 L
853 234 L
851 236 L
851 238 L
853 243 L
856 246 L
863 248 L
873 248 L
880 246 L
882 243 L
885 238 L
885 234 L
882 229 L
875 224 L
863 219 L
858 217 L
853 212 L
851 205 L
851 197 L
873 248 M 878 246 L
880 243 L
882 238 L
882 234 L
880 229 L
873 224 L
863 219 L
851 202 M 853 205 L
858 205 L
870 200 L
878 200 L
882 202 L
885 205 L
858 205 M 870 197 L
880 197 L
882 200 L
885 205 L
885 209 L
914 248 M 906 246 L
902 238 L
899 226 L
899 219 L
902 207 L
906 200 L
914 197 L
918 197 L
926 200 L
930 207 L
933 219 L
933 226 L
930 238 L
926 246 L
918 248 L
914 248 L
909 246 L
906 243 L
904 238 L
902 226 L
902 219 L
904 207 L
906 202 L
909 200 L
914 197 L
918 197 M 923 200 L
926 202 L
928 207 L
930 219 L
930 226 L
928 238 L
926 243 L
923 246 L
918 248 L
955 292 M 955 317 L
1050 292 M 1050 317 L
1145 292 M 1145 317 L
1240 292 M 1240 343 L
1216 197 M 1238 248 M 1230 246 L
1225 238 L
1223 226 L
1223 219 L
1225 207 L
1230 200 L
1238 197 L
1242 197 L
1250 200 L
1254 207 L
1257 219 L
1257 226 L
1254 238 L
1250 246 L
1242 248 L
1238 248 L
1233 246 L
1230 243 L
1228 238 L
1225 226 L
1225 219 L
1228 207 L
1230 202 L
1233 200 L
1238 197 L
1242 197 M 1247 200 L
1250 202 L
1252 207 L
1254 219 L
1254 226 L
1252 238 L
1250 243 L
1247 246 L
1242 248 L
1335 292 M 1335 317 L
1430 292 M 1430 317 L
1524 292 M 1524 317 L
1619 292 M 1619 343 L
1571 197 M 1581 238 M 1583 236 L
1581 234 L
1578 236 L
1578 238 L
1581 243 L
1583 246 L
1590 248 L
1600 248 L
1607 246 L
1610 243 L
1612 238 L
1612 234 L
1610 229 L
1602 224 L
1590 219 L
1586 217 L
1581 212 L
1578 205 L
1578 197 L
1600 248 M 1605 246 L
1607 243 L
1610 238 L
1610 234 L
1607 229 L
1600 224 L
1590 219 L
1578 202 M 1581 205 L
1586 205 L
1598 200 L
1605 200 L
1610 202 L
1612 205 L
1586 205 M 1598 197 L
1607 197 L
1610 200 L
1612 205 L
1612 209 L
1641 248 M 1634 246 L
1629 238 L
1626 226 L
1626 219 L
1629 207 L
1634 200 L
1641 197 L
1646 197 L
1653 200 L
1658 207 L
1660 219 L
1660 226 L
1658 238 L
1653 246 L
1646 248 L
1641 248 L
1636 246 L
1634 243 L
1631 238 L
1629 226 L
1629 219 L
1631 207 L
1634 202 L
1636 200 L
1641 197 L
1646 197 M 1650 200 L
1653 202 L
1655 207 L
1658 219 L
1658 226 L
1655 238 L
1653 243 L
1650 246 L
1646 248 L
1714 292 M 1714 317 L
1809 292 M 1809 317 L
1904 292 M 1904 317 L
1998 292 M 1998 343 L
1950 197 M 1979 243 M 1979 197 L
1982 248 M 1982 197 L
1982 248 M 1955 212 L
1994 212 L
1972 197 M 1989 197 L
2020 248 M 2013 246 L
2008 238 L
2006 226 L
2006 219 L
2008 207 L
2013 200 L
2020 197 L
2025 197 L
2032 200 L
2037 207 L
2039 219 L
2039 226 L
2037 238 L
2032 246 L
2025 248 L
2020 248 L
2015 246 L
2013 243 L
2011 238 L
2008 226 L
2008 219 L
2011 207 L
2013 202 L
2015 200 L
2020 197 L
2025 197 M 2030 200 L
2032 202 L
2035 207 L
2037 219 L
2037 226 L
2035 238 L
2032 243 L
2030 246 L
2025 248 L
2093 292 M 2093 317 L
2188 292 M 2188 317 L
292 2188 M 2188 2188 L
292 2188 M 292 2162 L
387 2188 M 387 2162 L
481 2188 M 481 2137 L
576 2188 M 576 2162 L
671 2188 M 671 2162 L
766 2188 M 766 2162 L
861 2188 M 861 2137 L
955 2188 M 955 2162 L
1050 2188 M 1050 2162 L
1145 2188 M 1145 2162 L
1240 2188 M 1240 2137 L
1335 2188 M 1335 2162 L
1430 2188 M 1430 2162 L
1524 2188 M 1524 2162 L
1619 2188 M 1619 2137 L
1714 2188 M 1714 2162 L
CS M
1809 2188 M 1809 2162 L
1904 2188 M 1904 2162 L
1998 2188 M 1998 2137 L
2093 2188 M 2093 2162 L
2188 2188 M 2188 2162 L
292 292 M 292 2188 L
292 292 M 343 292 L
200 267 M 214 307 M 219 310 L
226 317 L
226 267 L
224 315 M 224 267 L
214 267 M 236 267 L
292 406 M 317 406 L
292 473 M 317 473 L
292 520 M 317 520 L
292 557 M 317 557 L
292 587 M 317 587 L
292 612 M 317 612 L
292 634 M 317 634 L
292 654 M 317 654 L
292 671 M 343 671 L
152 646 M 166 687 M 171 689 L
178 696 L
178 646 L
176 694 M 176 646 L
166 646 M 188 646 L
222 696 M 214 694 L
209 687 L
207 675 L
207 667 L
209 655 L
214 648 L
222 646 L
226 646 L
234 648 L
238 655 L
241 667 L
241 675 L
238 687 L
234 694 L
226 696 L
222 696 L
217 694 L
214 692 L
212 687 L
209 675 L
209 667 L
212 655 L
214 651 L
217 648 L
222 646 L
226 646 M 231 648 L
234 651 L
236 655 L
238 667 L
238 675 L
236 687 L
234 692 L
231 694 L
226 696 L
292 785 M 317 785 L
292 852 M 317 852 L
292 899 M 317 899 L
292 936 M 317 936 L
292 966 M 317 966 L
292 992 M 317 992 L
292 1014 M 317 1014 L
292 1033 M 317 1033 L
292 1050 M 343 1050 L
123 1024 M 137 1065 M 142 1067 L
149 1074 L
149 1024 L
147 1072 M 147 1024 L
137 1024 M 159 1024 L
193 1074 M 185 1072 L
181 1065 L
178 1052 L
178 1045 L
181 1033 L
185 1026 L
193 1024 L
197 1024 L
205 1026 L
209 1033 L
212 1045 L
212 1052 L
209 1065 L
205 1072 L
197 1074 L
193 1074 L
188 1072 L
185 1069 L
183 1065 L
181 1052 L
181 1045 L
183 1033 L
185 1028 L
188 1026 L
193 1024 L
197 1024 M 202 1026 L
205 1028 L
207 1033 L
209 1045 L
209 1052 L
207 1065 L
205 1069 L
202 1072 L
197 1074 L
225 1071 M 226 1070 L
225 1068 L
223 1070 L
223 1071 L
225 1074 L
226 1076 L
231 1077 L
236 1077 L
241 1076 L
242 1074 L
244 1071 L
244 1068 L
242 1065 L
238 1063 L
231 1060 L
228 1058 L
225 1055 L
223 1051 L
223 1047 L
236 1077 M 239 1076 L
241 1074 L
242 1071 L
242 1068 L
241 1065 L
236 1063 L
231 1060 L
223 1050 M 225 1051 L
228 1051 L
235 1048 L
239 1048 L
242 1050 L
244 1051 L
228 1051 M 235 1047 L
241 1047 L
242 1048 L
244 1051 L
244 1054 L
292 1164 M 317 1164 L
292 1231 M 317 1231 L
292 1279 M 317 1279 L
292 1315 M 317 1315 L
292 1345 M 317 1345 L
292 1371 M 317 1371 L
292 1393 M 317 1393 L
292 1412 M 317 1412 L
292 1430 M 343 1430 L
123 1403 M 137 1444 M 142 1446 L
149 1453 L
149 1403 L
147 1451 M 147 1403 L
137 1403 M 159 1403 L
193 1453 M 185 1451 L
181 1444 L
178 1432 L
178 1425 L
181 1412 L
185 1405 L
193 1403 L
197 1403 L
205 1405 L
209 1412 L
212 1425 L
212 1432 L
209 1444 L
205 1451 L
197 1453 L
193 1453 L
188 1451 L
185 1449 L
183 1444 L
181 1432 L
181 1425 L
183 1412 L
185 1408 L
188 1405 L
193 1403 L
197 1403 M 202 1405 L
205 1408 L
207 1412 L
209 1425 L
209 1432 L
207 1444 L
205 1449 L
202 1451 L
197 1453 L
225 1450 M 226 1449 L
225 1448 L
223 1449 L
223 1450 L
225 1453 L
226 1455 L
231 1456 L
236 1456 L
241 1455 L
242 1452 L
242 1448 L
241 1445 L
236 1443 L
232 1443 L
236 1456 M 239 1455 L
241 1452 L
241 1448 L
239 1445 L
236 1443 L
239 1442 L
242 1439 L
244 1436 L
244 1432 L
242 1429 L
241 1427 L
236 1426 L
231 1426 L
226 1427 L
225 1429 L
223 1432 L
223 1433 L
225 1435 L
226 1433 L
225 1432 L
241 1440 M 242 1436 L
242 1432 L
241 1429 L
239 1427 L
236 1426 L
292 1544 M 317 1544 L
292 1611 M 317 1611 L
292 1658 M 317 1658 L
292 1695 M 317 1695 L
292 1725 M 317 1725 L
292 1750 M 317 1750 L
292 1772 M 317 1772 L
292 1791 M 317 1791 L
292 1809 M 343 1809 L
123 1782 M 137 1823 M 142 1825 L
149 1833 L
149 1782 L
147 1830 M 147 1782 L
137 1782 M 159 1782 L
193 1833 M 185 1830 L
181 1823 L
178 1811 L
178 1804 L
181 1792 L
185 1785 L
193 1782 L
197 1782 L
205 1785 L
209 1792 L
212 1804 L
212 1811 L
209 1823 L
205 1830 L
197 1833 L
193 1833 L
188 1830 L
185 1828 L
183 1823 L
181 1811 L
181 1804 L
183 1792 L
185 1787 L
188 1785 L
193 1782 L
197 1782 M 202 1785 L
205 1787 L
207 1792 L
209 1804 L
209 1811 L
207 1823 L
205 1828 L
202 1830 L
197 1833 L
236 1833 M 236 1805 L
238 1836 M 238 1805 L
238 1836 M 222 1814 L
245 1814 L
232 1805 M 242 1805 L
292 1923 M 317 1923 L
292 1990 M 317 1990 L
292 2037 M 317 2037 L
292 2074 M 317 2074 L
292 2104 M 317 2104 L
292 2129 M 317 2129 L
292 2151 M 317 2151 L
292 2171 M 317 2171 L
292 2188 M 343 2188 L
123 2161 M 137 2202 M 142 2205 L
149 2212 L
149 2161 L
147 2210 M 147 2161 L
137 2161 M 159 2161 L
193 2212 M 185 2210 L
CS M
181 2202 L
178 2190 L
178 2183 L
181 2171 L
185 2164 L
193 2161 L
197 2161 L
205 2164 L
209 2171 L
212 2183 L
212 2190 L
209 2202 L
205 2210 L
197 2212 L
193 2212 L
188 2210 L
185 2207 L
183 2202 L
181 2190 L
181 2183 L
183 2171 L
185 2166 L
188 2164 L
193 2161 L
197 2161 M 202 2164 L
205 2166 L
207 2171 L
209 2183 L
209 2190 L
207 2202 L
205 2207 L
202 2210 L
197 2212 L
226 2215 M 223 2200 L
226 2203 L
231 2205 L
235 2205 L
239 2203 L
242 2200 L
244 2196 L
244 2193 L
242 2189 L
239 2186 L
235 2184 L
231 2184 L
226 2186 L
225 2187 L
223 2190 L
223 2192 L
225 2193 L
226 2192 L
225 2190 L
235 2205 M 238 2203 L
241 2200 L
242 2196 L
242 2193 L
241 2189 L
238 2186 L
235 2184 L
226 2215 M 241 2215 L
226 2213 M 234 2213 L
241 2215 L
2188 292 M 2188 2188 L
2188 292 M 2137 292 L
2188 406 M 2162 406 L
2188 473 M 2162 473 L
2188 520 M 2162 520 L
2188 557 M 2162 557 L
2188 587 M 2162 587 L
2188 612 M 2162 612 L
2188 634 M 2162 634 L
2188 654 M 2162 654 L
2188 671 M 2137 671 L
2188 785 M 2162 785 L
2188 852 M 2162 852 L
2188 899 M 2162 899 L
2188 936 M 2162 936 L
2188 966 M 2162 966 L
2188 992 M 2162 992 L
2188 1014 M 2162 1014 L
2188 1033 M 2162 1033 L
2188 1050 M 2137 1050 L
2188 1164 M 2162 1164 L
2188 1231 M 2162 1231 L
2188 1279 M 2162 1279 L
2188 1315 M 2162 1315 L
2188 1345 M 2162 1345 L
2188 1371 M 2162 1371 L
2188 1393 M 2162 1393 L
2188 1412 M 2162 1412 L
2188 1430 M 2137 1430 L
2188 1544 M 2162 1544 L
2188 1611 M 2162 1611 L
2188 1658 M 2162 1658 L
2188 1695 M 2162 1695 L
2188 1725 M 2162 1725 L
2188 1750 M 2162 1750 L
2188 1772 M 2162 1772 L
2188 1791 M 2162 1791 L
2188 1809 M 2137 1809 L
2188 1923 M 2162 1923 L
2188 1990 M 2162 1990 L
2188 2037 M 2162 2037 L
2188 2074 M 2162 2074 L
2188 2104 M 2162 2104 L
2188 2129 M 2162 2129 L
2188 2151 M 2162 2151 L
2188 2171 M 2162 2171 L
2188 2188 M 2137 2188 L
CS [] 0 setdash M
CS [] 0 setdash M
1122 103 M 1129 154 M 1161 103 L
1132 154 M 1163 103 L
1163 154 M 1129 103 L
1124 154 M 1139 154 L
1153 154 M 1168 154 L
1124 103 M 1139 103 L
1153 103 M 1168 103 L
1182 103 M 1180 106 L
1182 108 L
1185 106 L
1185 101 L
1182 96 L
1180 94 L
1245 137 M 1245 86 L
1247 137 M 1247 86 L
1247 130 M 1252 134 L
1257 137 L
1262 137 L
1269 134 L
1274 130 L
1276 122 L
1276 118 L
1274 110 L
1269 106 L
1262 103 L
1257 103 L
1252 106 L
1247 110 L
1262 137 M 1266 134 L
1271 130 L
1274 122 L
1274 118 L
1271 110 L
1266 106 L
1262 103 L
1238 137 M 1247 137 L
1238 86 M 1254 86 L
1295 154 M 1293 151 L
1295 149 L
1298 151 L
1295 154 L
1295 137 M 1295 103 L
1298 137 M 1298 103 L
1288 137 M 1298 137 L
1288 103 M 1305 103 L
1319 137 M 1346 103 L
1322 137 M 1348 103 L
1348 137 M 1319 103 L
1315 137 M 1329 137 L
1339 137 M 1353 137 L
1315 103 M 1329 103 L
1339 103 M 1353 103 L
CS [] 0 setdash M
CS [] 0 setdash M
62 1022 M 12 1034 M 62 1034 L
12 1037 M 62 1037 L
12 1027 M 12 1056 L
14 1063 L
16 1065 L
21 1068 L
26 1068 L
31 1065 L
33 1063 L
36 1056 L
12 1056 M 14 1061 L
16 1063 L
21 1065 L
26 1065 L
31 1063 L
33 1061 L
36 1056 L
36 1037 M 36 1056 L
38 1063 L
41 1065 L
45 1068 L
53 1068 L
57 1065 L
60 1063 L
62 1056 L
62 1027 L
36 1056 M 38 1061 L
41 1063 L
45 1065 L
53 1065 L
57 1063 L
60 1061 L
62 1056 L
29 1087 M 62 1087 L
29 1089 M 62 1089 L
43 1089 M 36 1092 L
31 1097 L
29 1101 L
29 1109 L
31 1111 L
33 1111 L
36 1109 L
33 1106 L
31 1109 L
29 1080 M 29 1089 L
62 1080 M 62 1097 L
12 1128 M 14 1126 L
16 1128 L
14 1130 L
12 1128 L
29 1128 M 62 1128 L
29 1130 M 62 1130 L
29 1121 M 29 1130 L
62 1121 M 62 1138 L
29 1162 M 31 1157 L
33 1154 L
38 1152 L
43 1152 L
48 1154 L
50 1157 L
53 1162 L
53 1166 L
50 1171 L
48 1174 L
43 1176 L
38 1176 L
33 1174 L
31 1171 L
29 1166 L
29 1162 L
31 1157 M 36 1154 L
45 1154 L
50 1157 L
50 1171 M 45 1174 L
36 1174 L
31 1171 L
33 1174 M 31 1176 L
29 1181 L
31 1181 L
31 1176 L
48 1154 M 50 1152 L
55 1150 L
57 1150 L
62 1152 L
65 1159 L
65 1171 L
67 1179 L
69 1181 L
57 1150 M 60 1152 L
62 1159 L
62 1171 L
65 1179 L
69 1181 L
72 1181 L
77 1179 L
79 1171 L
79 1157 L
77 1150 L
72 1147 L
69 1147 L
65 1150 L
62 1157 L
12 1200 M 62 1200 L
12 1203 M 62 1203 L
36 1203 M 31 1207 L
29 1215 L
29 1219 L
31 1227 L
36 1229 L
62 1229 L
29 1219 M 31 1224 L
36 1227 L
62 1227 L
12 1193 M 12 1203 L
62 1193 M 62 1210 L
62 1219 M 62 1236 L
12 1253 M 53 1253 L
60 1256 L
62 1260 L
62 1265 L
60 1270 L
55 1272 L
12 1256 M 53 1256 L
60 1258 L
62 1260 L
29 1246 M 29 1265 L
29 1289 M 62 1289 L
29 1292 M 62 1292 L
36 1292 M 31 1296 L
29 1304 L
29 1308 L
31 1316 L
36 1318 L
62 1318 L
29 1308 M 31 1313 L
36 1316 L
62 1316 L
29 1282 M 29 1292 L
62 1282 M 62 1299 L
CS M
62 1308 M 62 1325 L
43 1340 M 43 1369 L
38 1369 L
33 1366 L
31 1364 L
29 1359 L
29 1352 L
31 1345 L
36 1340 L
43 1337 L
48 1337 L
55 1340 L
60 1345 L
62 1352 L
62 1357 L
60 1364 L
55 1369 L
43 1366 M 36 1366 L
31 1364 L
29 1352 M 31 1347 L
36 1342 L
43 1340 L
48 1340 L
55 1342 L
60 1347 L
62 1352 L
33 1407 M 29 1410 L
38 1410 L
33 1407 L
31 1405 L
29 1400 L
29 1390 L
31 1386 L
33 1383 L
38 1383 L
41 1386 L
43 1390 L
48 1402 L
50 1407 L
53 1410 L
36 1383 M 38 1386 L
41 1390 L
45 1402 L
48 1407 L
50 1410 L
57 1410 L
60 1407 L
62 1402 L
62 1393 L
60 1388 L
57 1386 L
53 1383 L
62 1383 L
57 1386 L
33 1448 M 29 1450 L
38 1450 L
33 1448 L
31 1446 L
29 1441 L
29 1431 L
31 1426 L
33 1424 L
38 1424 L
41 1426 L
43 1431 L
48 1443 L
50 1448 L
53 1450 L
36 1424 M 38 1426 L
41 1431 L
45 1443 L
48 1448 L
50 1450 L
57 1450 L
60 1448 L
62 1443 L
62 1434 L
60 1429 L
57 1426 L
53 1424 L
62 1424 L
57 1426 L
CS [] 0 setdash M
292 406 M 301 406 L
301 292 L
339 292 M 339 406 L
358 406 L
358 406 L
377 406 L
377 520 L
396 520 L
396 473 L
415 473 L
415 292 L
434 292 M 434 406 L
453 406 L
453 406 L
472 406 L
472 406 L
491 406 L
491 406 L
510 406 L
510 406 L
529 406 L
529 473 L
548 473 L
548 473 L
567 473 L
567 520 L
586 520 L
586 473 L
605 473 L
605 520 L
624 520 L
624 473 L
643 473 L
643 520 L
662 520 L
662 557 L
681 557 L
681 520 L
699 520 L
699 587 L
718 587 L
718 557 L
737 557 L
737 520 L
756 520 L
756 634 L
775 634 L
775 671 L
794 671 L
794 587 L
813 587 L
813 654 L
832 654 L
832 671 L
851 671 L
851 654 L
870 654 L
870 714 L
889 714 L
889 758 L
908 758 L
908 671 L
927 671 L
927 714 L
946 714 L
946 654 L
965 654 L
965 793 L
984 793 L
984 671 L
1003 671 L
1003 801 L
1022 801 L
1022 815 L
1041 815 L
1041 841 L
1060 841 L
1060 822 L
1079 822 L
1079 877 L
1098 877 L
1098 863 L
1117 863 L
1117 915 L
1136 915 L
1136 915 L
1155 915 L
1155 952 L
1174 952 L
1174 926 L
1193 926 L
1193 915 L
1211 915 L
1211 922 L
1230 922 L
1230 907 L
1249 907 L
1249 936 L
1268 936 L
1268 907 L
1287 907 L
1287 922 L
1306 922 L
1306 943 L
1325 943 L
1325 936 L
1344 936 L
1344 873 L
1363 873 L
1363 1100 L
1382 1100 L
1382 1441 L
1401 1441 L
1401 1692 L
1420 1692 L
1420 1770 L
1439 1770 L
1439 1693 L
1458 1693 L
1458 1436 L
1477 1436 L
1477 1067 L
1496 1067 L
1496 785 L
1515 785 L
1515 785 L
1534 785 L
1534 714 L
1553 714 L
1553 701 L
1572 701 L
1572 587 L
1591 587 L
1591 726 L
1610 726 L
1610 701 L
1629 701 L
1629 587 L
1648 587 L
1648 557 L
1667 557 L
1667 701 L
1686 701 L
1686 557 L
1705 557 L
1705 557 L
1724 557 L
1724 473 L
1742 473 L
1742 520 L
1761 520 L
1761 654 L
1780 654 L
1780 520 L
1799 520 L
1799 292 L
1818 292 L
1818 406 L
1837 406 L
1837 520 L
1856 520 L
1856 520 L
1875 520 L
1875 634 L
1894 634 L
1894 406 L
1913 406 L
1913 473 L
1932 473 L
1932 406 L
1951 406 L
1951 406 L
1970 406 L
1970 292 L
1989 292 M 1989 520 L
2008 520 L
2008 292 L
2046 292 L
2046 406 L
2065 406 L
2065 292 L
2084 292 L
2084 473 L
2103 473 L
2103 473 L
2122 473 L
2122 406 L
2141 406 L
2141 473 L
2160 473 L
2160 557 L
2179 557 L
2179 292 L
CS [6 12] 0 setdash M
CS M 1 100 mul 72 div dup setlinewidth
/P [ /moveto cvx 0 5 -1 roll .05 add dup -2 div 0 exch /rmoveto cvx /rlineto cvx /stroke cvx ] cvx def
 255 0 0 C
1350 292 M 1354 454 L
1373 1030 L
1392 1442 L
1411 1689 L
1430 1772 L
1449 1689 L
1467 1442 L
1486 1030 L
1505 454 L
1510 292 L
CS [] 0 setdash M
CS M 1 100 mul 72 div dup setlinewidth
/P [ /moveto cvx 0 5 -1 roll .05 add dup -2 div 0 exch /rmoveto cvx /rlineto cvx /stroke cvx ] cvx def
 0 0 0 C
CS [6 12] 0 setdash M
CS M 1 100 mul 72 div dup setlinewidth
/P [ /moveto cvx 0 5 -1 roll .05 add dup -2 div 0 exch /rmoveto cvx /rlineto cvx /stroke cvx ] cvx def
 255 0 0 C
319 292 M 330 298 L
349 308 L
368 318 L
387 328 L
406 339 L
424 350 L
443 361 L
462 372 L
481 383 L
500 395 L
519 407 L
538 419 L
557 431 L
576 443 L
595 456 L
CS M
614 469 L
633 482 L
652 496 L
671 510 L
690 524 L
709 538 L
728 553 L
747 568 L
766 583 L
785 598 L
804 614 L
823 630 L
842 646 L
861 663 L
880 680 L
899 696 L
918 714 L
937 731 L
955 748 L
974 765 L
993 782 L
1012 799 L
1031 816 L
1050 832 L
1069 847 L
1088 862 L
1107 875 L
1126 888 L
1145 899 L
1164 908 L
1183 915 L
1202 921 L
1221 924 L
1240 925 L
1259 924 L
1278 921 L
1297 915 L
1316 908 L
1335 899 L
1354 888 L
1373 875 L
1392 862 L
1411 847 L
1430 832 L
1449 816 L
1467 799 L
1486 782 L
1505 765 L
1524 748 L
1543 731 L
1562 714 L
1581 696 L
1600 680 L
1619 663 L
1638 646 L
1657 630 L
1676 614 L
1695 598 L
1714 583 L
1733 568 L
1752 553 L
1771 538 L
1790 524 L
1809 510 L
1828 496 L
1847 482 L
1866 469 L
1885 456 L
1904 443 L
1923 431 L
1942 419 L
1961 407 L
1980 395 L
1998 383 L
2017 372 L
2036 361 L
2055 350 L
2074 339 L
2093 328 L
2112 318 L
2131 308 L
2150 298 L
2161 292 L
CS [] 0 setdash M
CS M 1 100 mul 72 div dup setlinewidth
/P [ /moveto cvx 0 5 -1 roll .05 add dup -2 div 0 exch /rmoveto cvx /rlineto cvx /stroke cvx ] cvx def
 0 0 0 C
CS [] 0 setdash M
CS M 1 100 mul 72 div dup setlinewidth
/P [ /moveto cvx 0 5 -1 roll .05 add dup -2 div 0 exch /rmoveto cvx /rlineto cvx /stroke cvx ] cvx def
 255 0 0 C
1411 292 M 1411 1649 L
1430 1747 L
1449 1650 L
1449 292 L
CS [] 0 setdash M
CS M 1 100 mul 72 div dup setlinewidth
/P [ /moveto cvx 0 5 -1 roll .05 add dup -2 div 0 exch /rmoveto cvx /rlineto cvx /stroke cvx ] cvx def
 0 0 0 C
CS [] 0 setdash M
CS M 1 100 mul 72 div dup setlinewidth
/P [ /moveto cvx 0 5 -1 roll .05 add dup -2 div 0 exch /rmoveto cvx /rlineto cvx /stroke cvx ] cvx def
 255 0 0 C
1373 292 M 1373 1017 L
1392 1575 L
1411 1712 L
1430 1754 L
1449 1712 L
1467 1575 L
1486 1014 L
1486 292 L
CS [] 0 setdash M
CS M 1 100 mul 72 div dup setlinewidth
/P [ /moveto cvx 0 5 -1 roll .05 add dup -2 div 0 exch /rmoveto cvx /rlineto cvx /stroke cvx ] cvx def
 0 0 0 C
CS [] 0 setdash M
CS M 1 100 mul 72 div dup setlinewidth
/P [ /moveto cvx 0 5 -1 roll .05 add dup -2 div 0 exch /rmoveto cvx /rlineto cvx /stroke cvx ] cvx def
 255 0 0 C
1335 292 M 1335 1252 L
1354 1460 L
1373 1567 L
1392 1633 L
1411 1669 L
1430 1680 L
1449 1669 L
1467 1633 L
1486 1566 L
1505 1458 L
1524 1247 L
1524 292 L
CS [] 0 setdash M
CS M 1 100 mul 72 div dup setlinewidth
/P [ /moveto cvx 0 5 -1 roll .05 add dup -2 div 0 exch /rmoveto cvx /rlineto cvx /stroke cvx ] cvx def
 0 0 0 C
CS [] 0 setdash M
CS M 1 100 mul 72 div dup setlinewidth
/P [ /moveto cvx 0 5 -1 roll .05 add dup -2 div 0 exch /rmoveto cvx /rlineto cvx /stroke cvx ] cvx def
 255 0 0 C
1221 292 M 1221 929 L
1240 1153 L
1259 1262 L
1278 1335 L
1297 1389 L
1316 1431 L
1335 1463 L
1354 1488 L
1373 1507 L
1392 1520 L
1411 1528 L
1430 1530 L
1449 1527 L
1467 1519 L
1486 1505 L
1505 1485 L
1524 1459 L
1543 1425 L
1562 1380 L
1581 1322 L
1600 1241 L
1619 1106 L
1638 770 L
1638 292 L
CS [] 0 setdash M
CS M 1 100 mul 72 div dup setlinewidth
/P [ /moveto cvx 0 5 -1 roll .05 add dup -2 div 0 exch /rmoveto cvx /rlineto cvx /stroke cvx ] cvx def
 0 0 0 C
CS [] 0 setdash M
CS M 1 100 mul 72 div dup setlinewidth
/P [ /moveto cvx 0 5 -1 roll .05 add dup -2 div 0 exch /rmoveto cvx /rlineto cvx /stroke cvx ] cvx def
 255 0 0 C
993 292 M 993 696 L
1012 862 L
1031 946 L
1050 1006 L
1069 1053 L
1088 1092 L
1107 1126 L
1126 1154 L
1145 1180 L
1164 1202 L
1183 1222 L
1202 1240 L
1221 1256 L
1240 1270 L
1259 1282 L
1278 1293 L
1297 1303 L
1316 1311 L
1335 1317 L
1354 1322 L
1373 1326 L
1392 1329 L
1411 1330 L
1430 1331 L
1449 1329 L
1467 1327 L
1486 1324 L
1505 1319 L
1524 1312 L
1543 1305 L
1562 1295 L
1581 1285 L
1600 1273 L
1619 1259 L
1638 1243 L
1657 1225 L
1676 1204 L
1695 1182 L
1714 1155 L
1733 1126 L
1752 1091 L
1771 1049 L
1790 997 L
1809 929 L
1828 826 L
1847 562 L
1847 292 L
CS [] 0 setdash M
CS M 1 100 mul 72 div dup setlinewidth
/P [ /moveto cvx 0 5 -1 roll .05 add dup -2 div 0 exch /rmoveto cvx /rlineto cvx /stroke cvx ] cvx def
 0 0 0 C
CS [] 0 setdash M
CS M 1 100 mul 72 div dup setlinewidth
/P [ /moveto cvx 0 5 -1 roll .05 add dup -2 div 0 exch /rmoveto cvx /rlineto cvx /stroke cvx ] cvx def
 255 0 0 C
557 292 M 557 501 L
576 592 L
595 653 L
614 699 L
633 737 L
652 770 L
671 798 L
690 822 L
709 845 L
728 865 L
747 884 L
766 901 L
785 917 L
804 932 L
823 946 L
842 959 L
861 971 L
880 982 L
899 993 L
918 1003 L
937 1013 L
955 1022 L
974 1031 L
993 1039 L
1012 1046 L
1031 1053 L
1050 1060 L
1069 1066 L
1088 1072 L
1107 1078 L
1126 1083 L
1145 1088 L
1164 1092 L
1183 1096 L
1202 1100 L
1221 1103 L
1240 1106 L
1259 1109 L
1278 1111 L
1297 1113 L
1316 1115 L
1335 1117 L
1354 1118 L
1373 1118 L
1392 1119 L
1411 1119 L
1430 1119 L
1449 1118 L
1467 1118 L
1486 1117 L
1505 1115 L
1524 1114 L
1543 1111 L
1562 1109 L
1581 1106 L
1600 1103 L
1619 1100 L
1638 1096 L
1657 1092 L
1676 1088 L
1695 1083 L
1714 1078 L
1733 1072 L
1752 1066 L
1771 1060 L
1790 1053 L
1809 1046 L
1828 1038 L
1847 1030 L
1866 1021 L
1885 1012 L
1904 1002 L
1923 992 L
1942 981 L
1961 969 L
1980 957 L
1998 943 L
2017 929 L
2036 913 L
2055 897 L
2074 879 L
2093 859 L
2112 838 L
2131 814 L
2150 787 L
2169 757 L
2188 721 L
CS [] 0 setdash M
CS M 1 100 mul 72 div dup setlinewidth
/P [ /moveto cvx 0 5 -1 roll .05 add dup -2 div 0 exch /rmoveto cvx /rlineto cvx /stroke cvx ] cvx def
 0 0 0 C
861 1993 M CS [] 0 setdash M
367 1976 M 406 2019 M 408 2026 L
408 2012 L
406 2019 L
401 2024 L
394 2026 L
386 2026 L
379 2024 L
374 2019 L
374 2014 L
377 2010 L
379 2007 L
384 2005 L
399 2000 L
403 1998 L
408 1993 L
374 2014 M 379 2010 L
384 2007 L
399 2002 L
403 2000 L
406 1998 L
408 1993 L
408 1983 L
403 1978 L
396 1976 L
389 1976 L
382 1978 L
377 1983 L
374 1990 L
374 1976 L
377 1983 L
427 2026 M 425 2024 L
427 2022 L
430 2024 L
427 2026 L
427 2010 M 427 1976 L
CS M
430 2010 M 430 1976 L
420 2010 M 430 2010 L
420 1976 M 437 1976 L
454 2010 M 454 1976 L
456 2010 M 456 1976 L
456 2002 M 461 2007 L
468 2010 L
473 2010 L
480 2007 L
483 2002 L
483 1976 L
473 2010 M 478 2007 L
480 2002 L
480 1976 L
483 2002 M 488 2007 L
495 2010 L
500 2010 L
507 2007 L
509 2002 L
509 1976 L
500 2010 M 504 2007 L
507 2002 L
507 1976 L
447 2010 M 456 2010 L
447 1976 M 464 1976 L
473 1976 M 490 1976 L
500 1976 M 516 1976 L
533 2010 M 533 1959 L
536 2010 M 536 1959 L
536 2002 M 541 2007 L
545 2010 L
550 2010 L
557 2007 L
562 2002 L
565 1995 L
565 1990 L
562 1983 L
557 1978 L
550 1976 L
545 1976 L
541 1978 L
536 1983 L
550 2010 M 555 2007 L
560 2002 L
562 1995 L
562 1990 L
560 1983 L
555 1978 L
550 1976 L
526 2010 M 536 2010 L
526 1959 M 543 1959 L
584 2026 M 584 1976 L
586 2026 M 586 1976 L
577 2026 M 586 2026 L
577 1976 M 593 1976 L
608 1995 M 637 1995 L
637 2000 L
634 2005 L
632 2007 L
627 2010 L
620 2010 L
613 2007 L
608 2002 L
606 1995 L
606 1990 L
608 1983 L
613 1978 L
620 1976 L
625 1976 L
632 1978 L
637 1983 L
634 1995 M 634 2002 L
632 2007 L
620 2010 M 615 2007 L
610 2002 L
608 1995 L
608 1990 L
610 1983 L
615 1978 L
620 1976 L
692 2026 M 702 1976 L
695 2026 M 702 1988 L
711 2026 M 702 1976 L
711 2026 M 721 1976 L
714 2026 M 721 1988 L
731 2026 M 721 1976 L
685 2026 M 702 2026 L
723 2026 M 738 2026 L
752 2005 M 752 2002 L
750 2002 L
750 2005 L
752 2007 L
757 2010 L
767 2010 L
772 2007 L
774 2005 L
776 2000 L
776 1983 L
779 1978 L
781 1976 L
774 2005 M 774 1983 L
776 1978 L
781 1976 L
784 1976 L
774 2000 M 772 1998 L
757 1995 L
750 1993 L
748 1988 L
748 1983 L
750 1978 L
757 1976 L
764 1976 L
769 1978 L
774 1983 L
757 1995 M 752 1993 L
750 1988 L
750 1983 L
752 1978 L
757 1976 L
796 2010 M 810 1976 L
798 2010 M 810 1981 L
825 2010 M 810 1976 L
791 2010 M 805 2010 L
815 2010 M 829 2010 L
841 1995 M 870 1995 L
870 2000 L
868 2005 L
865 2007 L
861 2010 L
853 2010 L
846 2007 L
841 2002 L
839 1995 L
839 1990 L
841 1983 L
846 1978 L
853 1976 L
858 1976 L
865 1978 L
870 1983 L
868 1995 M 868 2002 L
865 2007 L
853 2010 M 849 2007 L
844 2002 L
841 1995 L
841 1990 L
844 1983 L
849 1978 L
853 1976 L
890 2026 M 890 1976 L
892 2026 M 892 1976 L
882 2026 M 892 2026 L
882 1976 M 899 1976 L
914 1995 M 942 1995 L
942 2000 L
940 2005 L
938 2007 L
933 2010 L
926 2010 L
918 2007 L
914 2002 L
911 1995 L
911 1990 L
914 1983 L
918 1978 L
926 1976 L
930 1976 L
938 1978 L
942 1983 L
940 1995 M 940 2002 L
938 2007 L
926 2010 M 921 2007 L
916 2002 L
914 1995 L
914 1990 L
916 1983 L
921 1978 L
926 1976 L
962 2026 M 962 1986 L
964 1978 L
969 1976 L
974 1976 L
979 1978 L
981 1983 L
964 2026 M 964 1986 L
967 1978 L
969 1976 L
955 2010 M 974 2010 L
1048 2026 M 1032 1976 L
1048 2026 M 1065 1976 L
1048 2019 M 1063 1976 L
1036 1990 M 1058 1990 L
1027 1976 M 1041 1976 L
1056 1976 M 1070 1976 L
1085 2010 M 1085 1976 L
1087 2010 M 1087 1976 L
1087 2002 M 1092 2007 L
1099 2010 L
1104 2010 L
1111 2007 L
1113 2002 L
1113 1976 L
1104 2010 M 1109 2007 L
1111 2002 L
1111 1976 L
1077 2010 M 1087 2010 L
1077 1976 M 1094 1976 L
1104 1976 M 1121 1976 L
1137 2005 M 1137 2002 L
1135 2002 L
1135 2005 L
1137 2007 L
1142 2010 L
1152 2010 L
1157 2007 L
1159 2005 L
1162 2000 L
1162 1983 L
1164 1978 L
1166 1976 L
1159 2005 M 1159 1983 L
1162 1978 L
1166 1976 L
1169 1976 L
1159 2000 M 1157 1998 L
1142 1995 L
1135 1993 L
1133 1988 L
1133 1983 L
1135 1978 L
1142 1976 L
1149 1976 L
1154 1978 L
1159 1983 L
1142 1995 M 1137 1993 L
1135 1988 L
1135 1983 L
1137 1978 L
1142 1976 L
1186 2026 M 1186 1976 L
1188 2026 M 1188 1976 L
1178 2026 M 1188 2026 L
1178 1976 M 1195 1976 L
1210 2010 M 1224 1976 L
1212 2010 M 1224 1981 L
1239 2010 M 1224 1976 L
1219 1966 L
1214 1961 L
1210 1959 L
1207 1959 L
1205 1961 L
1207 1964 L
1210 1961 L
1205 2010 M 1219 2010 L
1229 2010 M 1243 2010 L
1277 2005 M 1279 2010 L
1279 2000 L
1277 2005 L
1275 2007 L
1270 2010 L
1260 2010 L
1255 2007 L
1253 2005 L
1253 2000 L
1255 1998 L
1260 1995 L
1272 1990 L
1277 1988 L
1279 1986 L
1253 2002 M 1255 2000 L
1260 1998 L
1272 1993 L
1277 1990 L
1279 1988 L
1279 1981 L
1277 1978 L
1272 1976 L
1263 1976 L
1258 1978 L
1255 1981 L
1253 1986 L
1253 1976 L
1255 1981 L
1299 2026 M 1296 2024 L
1299 2022 L
1301 2024 L
1299 2026 L
1299 2010 M 1299 1976 L
1301 2010 M 1301 1976 L
1291 2010 M 1301 2010 L
1291 1976 M 1308 1976 L
1344 2005 M 1347 2010 L
1347 2000 L
1344 2005 L
1342 2007 L
1337 2010 L
1328 2010 L
1323 2007 L
1320 2005 L
1320 2000 L
CS M
1323 1998 L
1328 1995 L
1340 1990 L
1344 1988 L
1347 1986 L
1320 2002 M 1323 2000 L
1328 1998 L
1340 1993 L
1344 1990 L
1347 1988 L
1347 1981 L
1344 1978 L
1340 1976 L
1330 1976 L
1325 1978 L
1323 1981 L
1320 1986 L
1320 1976 L
1323 1981 L
1354 1976 M CS [] 0 setdash M
stroke
grestore
showpage
end
