\relax 
\citation{greb:a1367}
\citation{slezak:wavelet:restoration}
\@writefile{toc}{\contentsline {section}{\numberline {1}Introduction}{1}}
\@writefile{toc}{\contentsline {section}{\numberline {2}Problem}{1}}
\newlabel{gov}{{2}{1}}
\@writefile{lof}{\contentsline {figure}{\numberline {1}{\ignorespaces Sample image}}{1}}
\newlabel{fig:wvdec:image}{{1}{1}}
\@writefile{lof}{\contentsline {figure}{\numberline {2}{\ignorespaces Simple wavelet analysis}}{1}}
\newlabel{fig:wv:simple}{{2}{1}}
\citation{white:coma:image93}
\citation{v:coma}
\citation{v:coma:tail}
\citation{starck:atrous:94}
\@writefile{lof}{\contentsline {figure}{\numberline {3}{\ignorespaces Wavelet decomposition. Solid curves show flux at scales from 1 (the narrowest) to 6 (the broadest) }}{2}}
\newlabel{fig:wv:decomp}{{3}{2}}
\@writefile{toc}{\contentsline {section}{\numberline {3}Wavelet Decomposition: The Idea}{2}}
\newlabel{sec:kernel}{{3}{2}}
\@writefile{lof}{\contentsline {figure}{\numberline {4}{\ignorespaces Restoration of the original image. Solid curves show the combined scales 1--3 and 4--6}}{3}}
\newlabel{fig:wv:cluster:point}{{4}{3}}
\newlabel{eq:wv:restore}{{1}{3}}
\citation{starck:wavelet:thresholds98}
\citation{gehrels:poisson:approximation86}
\@writefile{toc}{\contentsline {section}{\numberline {4}Thresholding}{4}}
\@writefile{toc}{\contentsline {subsection}{\numberline {4.1}Detection thresholds}{4}}
\newlabel{sec:tmax}{{4.1}{4}}
\@writefile{toc}{\contentsline {subsubsection}{\numberline {4.1.1}Gaussian noise}{4}}
\newlabel{eq:threshold:gauss}{{2}{4}}
\newlabel{eq:effnoise}{{3}{4}}
\@writefile{toc}{\contentsline {subsubsection}{\numberline {4.1.2}Poisson noise}{4}}
\citation{starck:atrous:94}
\newlabel{eq:poisson:error:map}{{4}{5}}
\@writefile{toc}{\contentsline {subsection}{\numberline {4.2}Filtering thresholds}{5}}
\newlabel{sec:tmin}{{4.2}{5}}
\@writefile{lof}{\contentsline {figure}{\numberline {5}{\ignorespaces \nobreakspace  {}}}{5}}
\newlabel{fig:tmin}{{5}{5}}
\@writefile{lof}{\contentsline {figure}{\numberline {6}{\ignorespaces \nobreakspace  {}}}{5}}
\newlabel{fig:tmin2}{{6}{5}}
\@writefile{toc}{\contentsline {section}{\numberline {5}Implementation}{6}}
\@writefile{toc}{\contentsline {subsection}{\numberline {5.1}Wavelet kernels}{6}}
\@writefile{toc}{\contentsline {subsection}{\numberline {5.2}The code}{6}}
\@writefile{toc}{\contentsline {section}{\numberline {6}Examples}{7}}
\bibstyle{plainav}
\bibdata{vikhlinin,clusters,wv}
\bibcite{greb:a1367}{1}
\bibcite{slezak:wavelet:restoration}{2}
\bibcite{white:coma:image93}{3}
\bibcite{v:coma}{4}
\bibcite{v:coma:tail}{5}
\bibcite{starck:atrous:94}{6}
\bibcite{starck:wavelet:thresholds98}{7}
\bibcite{gehrels:poisson:approximation86}{8}
\@writefile{toc}{\contentsline {subsection}{\numberline {6.1}Calculation of the background map}{8}}
\@writefile{toc}{\contentsline {subsection}{\numberline {6.2}Subtraction of point sources to study the large scale brightness gradients}{8}}
