%!PS-Adobe-2.0 EPSF-2.0
%%Creator: SM
%%BoundingBox: 18 144 592 718
%%DocumentFonts: Helvetica
%%EndComments
 20 dict begin
72 300 div dup scale
1 setlinejoin 0 setlinecap
/Courier findfont 55 scalefont setfont 
/B { currentpoint stroke newpath moveto } def
/F { moveto 0 setlinecap} def
/C { CS M 1 1 3 { pop 3 1 roll 255 div } for SET_COLOUR } def
/CS { currentpoint stroke } def
/CF { currentpoint fill } def
/L { lineto } def /M { moveto } def
/P { moveto 0 1 rlineto stroke } def
/T { currentlinecap exch 1 setlinecap show setlinecap } def
errordict /nocurrentpoint { pop 0 0 M currentpoint } put
/SET_COLOUR { pop pop pop } def
 80 600 translate
gsave
CS [] 0 setdash M
CS M 1 100 mul 72 div dup setlinewidth
/P [ /moveto cvx 0 5 -1 roll .05 add dup -2 div 0 exch /rmoveto cvx /rlineto cvx /stroke cvx ] cvx def
 0 0 0 C
 0 0 0 C
CS [] 0 setdash M
291 291 M 2188 291 L
291 291 M 291 317 L
386 291 M 386 317 L
481 291 M 481 343 L
401 197 M 411 219 M 454 219 L
493 243 M 493 197 L
495 247 M 495 197 L
495 247 M 469 211 L
507 211 L
486 197 M 503 197 L
534 247 M 527 245 L
522 238 L
519 226 L
519 219 L
522 207 L
527 199 L
534 197 L
539 197 L
546 199 L
551 207 L
553 219 L
553 226 L
551 238 L
546 245 L
539 247 L
534 247 L
529 245 L
527 243 L
524 238 L
522 226 L
522 219 L
524 207 L
527 202 L
529 199 L
534 197 L
539 197 M 543 199 L
546 202 L
548 207 L
551 219 L
551 226 L
548 238 L
546 243 L
543 245 L
539 247 L
576 291 M 576 317 L
671 291 M 671 317 L
765 291 M 765 317 L
860 291 M 860 343 L
781 197 M 790 219 M 834 219 L
853 238 M 855 235 L
853 233 L
851 235 L
851 238 L
853 243 L
855 245 L
863 247 L
872 247 L
879 245 L
882 243 L
884 238 L
884 233 L
882 228 L
875 223 L
863 219 L
858 216 L
853 211 L
851 204 L
851 197 L
872 247 M 877 245 L
879 243 L
882 238 L
882 233 L
879 228 L
872 223 L
863 219 L
851 202 M 853 204 L
858 204 L
870 199 L
877 199 L
882 202 L
884 204 L
858 204 M 870 197 L
879 197 L
882 199 L
884 204 L
884 209 L
913 247 M 906 245 L
901 238 L
899 226 L
899 219 L
901 207 L
906 199 L
913 197 L
918 197 L
925 199 L
930 207 L
932 219 L
932 226 L
930 238 L
925 245 L
918 247 L
913 247 L
908 245 L
906 243 L
903 238 L
901 226 L
901 219 L
903 207 L
906 202 L
908 199 L
913 197 L
918 197 M 923 199 L
925 202 L
928 207 L
930 219 L
930 226 L
928 238 L
925 243 L
923 245 L
918 247 L
955 291 M 955 317 L
1050 291 M 1050 317 L
1145 291 M 1145 317 L
1239 291 M 1239 343 L
1215 197 M 1237 247 M 1230 245 L
1225 238 L
1223 226 L
1223 219 L
1225 207 L
1230 199 L
1237 197 L
1242 197 L
1249 199 L
1254 207 L
1256 219 L
1256 226 L
1254 238 L
1249 245 L
1242 247 L
1237 247 L
1232 245 L
1230 243 L
1227 238 L
1225 226 L
1225 219 L
1227 207 L
1230 202 L
1232 199 L
1237 197 L
1242 197 M 1247 199 L
1249 202 L
1251 207 L
1254 219 L
1254 226 L
1251 238 L
1249 243 L
1247 245 L
1242 247 L
1334 291 M 1334 317 L
1429 291 M 1429 317 L
1524 291 M 1524 317 L
1619 291 M 1619 343 L
1571 197 M 1580 238 M 1583 235 L
1580 233 L
1578 235 L
1578 238 L
1580 243 L
1583 245 L
1590 247 L
1599 247 L
1607 245 L
1609 243 L
1611 238 L
1611 233 L
1609 228 L
1602 223 L
1590 219 L
1585 216 L
1580 211 L
1578 204 L
1578 197 L
1599 247 M 1604 245 L
1607 243 L
1609 238 L
1609 233 L
1607 228 L
1599 223 L
1590 219 L
1578 202 M 1580 204 L
1585 204 L
1597 199 L
1604 199 L
1609 202 L
1611 204 L
1585 204 M 1597 197 L
1607 197 L
1609 199 L
1611 204 L
1611 209 L
1640 247 M 1633 245 L
1628 238 L
1626 226 L
1626 219 L
1628 207 L
1633 199 L
1640 197 L
1645 197 L
1652 199 L
1657 207 L
1660 219 L
1660 226 L
1657 238 L
1652 245 L
1645 247 L
1640 247 L
1636 245 L
1633 243 L
1631 238 L
1628 226 L
1628 219 L
1631 207 L
1633 202 L
1636 199 L
1640 197 L
1645 197 M 1650 199 L
1652 202 L
1655 207 L
1657 219 L
1657 226 L
1655 238 L
1652 243 L
1650 245 L
1645 247 L
1714 291 M 1714 317 L
1808 291 M 1808 317 L
1903 291 M 1903 317 L
1998 291 M 1998 343 L
1950 197 M 1979 243 M 1979 197 L
1981 247 M 1981 197 L
1981 247 M 1955 211 L
1993 211 L
1971 197 M 1988 197 L
2020 247 M 2012 245 L
2008 238 L
2005 226 L
2005 219 L
2008 207 L
2012 199 L
2020 197 L
2024 197 L
2032 199 L
2036 207 L
2039 219 L
2039 226 L
2036 238 L
2032 245 L
2024 247 L
2020 247 L
2015 245 L
2012 243 L
2010 238 L
2008 226 L
2008 219 L
2010 207 L
2012 202 L
2015 199 L
2020 197 L
2024 197 M 2029 199 L
2032 202 L
2034 207 L
2036 219 L
2036 226 L
2034 238 L
2032 243 L
2029 245 L
2024 247 L
2093 291 M 2093 317 L
2188 291 M 2188 317 L
291 2188 M 2188 2188 L
291 2188 M 291 2162 L
386 2188 M 386 2162 L
481 2188 M 481 2136 L
576 2188 M 576 2162 L
671 2188 M 671 2162 L
765 2188 M 765 2162 L
860 2188 M 860 2136 L
955 2188 M 955 2162 L
1050 2188 M 1050 2162 L
1145 2188 M 1145 2162 L
1239 2188 M 1239 2136 L
1334 2188 M 1334 2162 L
1429 2188 M 1429 2162 L
1524 2188 M 1524 2162 L
1619 2188 M 1619 2136 L
1714 2188 M 1714 2162 L
1808 2188 M 1808 2162 L
1903 2188 M 1903 2162 L
1998 2188 M 1998 2136 L
2093 2188 M 2093 2162 L
2188 2188 M 2188 2162 L
CS M
291 291 M 291 2188 L
291 291 M 343 291 L
199 266 M 214 307 M 219 309 L
226 317 L
226 266 L
223 314 M 223 266 L
214 266 M 235 266 L
291 405 M 317 405 L
291 472 M 317 472 L
291 520 M 317 520 L
291 556 M 317 556 L
291 586 M 317 586 L
291 612 M 317 612 L
291 634 M 317 634 L
291 653 M 317 653 L
291 671 M 343 671 L
151 645 M 166 686 M 170 689 L
178 696 L
178 645 L
175 693 M 175 645 L
166 645 M 187 645 L
221 696 M 214 693 L
209 686 L
207 674 L
207 667 L
209 655 L
214 648 L
221 645 L
226 645 L
233 648 L
238 655 L
240 667 L
240 674 L
238 686 L
233 693 L
226 696 L
221 696 L
216 693 L
214 691 L
211 686 L
209 674 L
209 667 L
211 655 L
214 650 L
216 648 L
221 645 L
226 645 M 231 648 L
233 650 L
235 655 L
238 667 L
238 674 L
235 686 L
233 691 L
231 693 L
226 696 L
291 785 M 317 785 L
291 851 M 317 851 L
291 899 M 317 899 L
291 936 M 317 936 L
291 966 M 317 966 L
291 991 M 317 991 L
291 1013 M 317 1013 L
291 1032 M 317 1032 L
291 1050 M 343 1050 L
122 1023 M 137 1064 M 142 1066 L
149 1074 L
149 1023 L
146 1071 M 146 1023 L
137 1023 M 158 1023 L
192 1074 M 185 1071 L
180 1064 L
178 1052 L
178 1045 L
180 1033 L
185 1026 L
192 1023 L
197 1023 L
204 1026 L
209 1033 L
211 1045 L
211 1052 L
209 1064 L
204 1071 L
197 1074 L
192 1074 L
187 1071 L
185 1069 L
182 1064 L
180 1052 L
180 1045 L
182 1033 L
185 1028 L
187 1026 L
192 1023 L
197 1023 M 202 1026 L
204 1028 L
207 1033 L
209 1045 L
209 1052 L
207 1064 L
204 1069 L
202 1071 L
197 1074 L
224 1071 M 226 1069 L
224 1068 L
223 1069 L
223 1071 L
224 1074 L
226 1075 L
230 1076 L
236 1076 L
240 1075 L
242 1074 L
243 1071 L
243 1068 L
242 1065 L
237 1062 L
230 1059 L
227 1058 L
224 1055 L
223 1051 L
223 1046 L
236 1076 M 239 1075 L
240 1074 L
242 1071 L
242 1068 L
240 1065 L
236 1062 L
230 1059 L
223 1049 M 224 1051 L
227 1051 L
234 1048 L
239 1048 L
242 1049 L
243 1051 L
227 1051 M 234 1046 L
240 1046 L
242 1048 L
243 1051 L
243 1053 L
291 1164 M 317 1164 L
291 1231 M 317 1231 L
291 1278 M 317 1278 L
291 1315 M 317 1315 L
291 1345 M 317 1345 L
291 1370 M 317 1370 L
291 1392 M 317 1392 L
291 1412 M 317 1412 L
291 1429 M 343 1429 L
122 1402 M 137 1443 M 142 1446 L
149 1453 L
149 1402 L
146 1451 M 146 1402 L
137 1402 M 158 1402 L
192 1453 M 185 1451 L
180 1443 L
178 1431 L
178 1424 L
180 1412 L
185 1405 L
192 1402 L
197 1402 L
204 1405 L
209 1412 L
211 1424 L
211 1431 L
209 1443 L
204 1451 L
197 1453 L
192 1453 L
187 1451 L
185 1448 L
182 1443 L
180 1431 L
180 1424 L
182 1412 L
185 1407 L
187 1405 L
192 1402 L
197 1402 M 202 1405 L
204 1407 L
207 1412 L
209 1424 L
209 1431 L
207 1443 L
204 1448 L
202 1451 L
197 1453 L
224 1450 M 226 1449 L
224 1447 L
223 1449 L
223 1450 L
224 1453 L
226 1454 L
230 1456 L
236 1456 L
240 1454 L
242 1451 L
242 1447 L
240 1444 L
236 1443 L
232 1443 L
236 1456 M 239 1454 L
240 1451 L
240 1447 L
239 1444 L
236 1443 L
239 1441 L
242 1438 L
243 1436 L
243 1431 L
242 1428 L
240 1427 L
236 1425 L
230 1425 L
226 1427 L
224 1428 L
223 1431 L
223 1433 L
224 1434 L
226 1433 L
224 1431 L
240 1440 M 242 1436 L
242 1431 L
240 1428 L
239 1427 L
236 1425 L
291 1543 M 317 1543 L
291 1610 M 317 1610 L
291 1657 M 317 1657 L
291 1694 M 317 1694 L
291 1724 M 317 1724 L
291 1750 M 317 1750 L
291 1772 M 317 1772 L
291 1791 M 317 1791 L
291 1808 M 343 1808 L
122 1782 M 137 1823 M 142 1825 L
149 1832 L
149 1782 L
146 1830 M 146 1782 L
137 1782 M 158 1782 L
192 1832 M 185 1830 L
180 1823 L
178 1811 L
178 1803 L
180 1791 L
185 1784 L
192 1782 L
197 1782 L
204 1784 L
209 1791 L
211 1803 L
211 1811 L
209 1823 L
204 1830 L
197 1832 L
192 1832 L
187 1830 L
185 1827 L
182 1823 L
180 1811 L
180 1803 L
182 1791 L
185 1786 L
187 1784 L
192 1782 L
197 1782 M 202 1784 L
204 1786 L
207 1791 L
209 1803 L
209 1811 L
207 1823 L
204 1827 L
202 1830 L
197 1832 L
236 1832 M 236 1805 L
237 1835 M 237 1805 L
237 1835 M 221 1813 L
245 1813 L
232 1805 M 242 1805 L
291 1922 M 317 1922 L
291 1989 M 317 1989 L
291 2037 M 317 2037 L
291 2073 M 317 2073 L
291 2103 M 317 2103 L
291 2129 M 317 2129 L
291 2151 M 317 2151 L
291 2170 M 317 2170 L
291 2188 M 343 2188 L
122 2161 M 137 2202 M 142 2204 L
149 2211 L
149 2161 L
146 2209 M 146 2161 L
137 2161 M 158 2161 L
192 2211 M 185 2209 L
180 2202 L
178 2190 L
178 2183 L
180 2171 L
185 2163 L
CS M
192 2161 L
197 2161 L
204 2163 L
209 2171 L
211 2183 L
211 2190 L
209 2202 L
204 2209 L
197 2211 L
192 2211 L
187 2209 L
185 2207 L
182 2202 L
180 2190 L
180 2183 L
182 2171 L
185 2166 L
187 2163 L
192 2161 L
197 2161 M 202 2163 L
204 2166 L
207 2171 L
209 2183 L
209 2190 L
207 2202 L
204 2207 L
202 2209 L
197 2211 L
226 2214 M 223 2200 L
226 2203 L
230 2204 L
234 2204 L
239 2203 L
242 2200 L
243 2196 L
243 2193 L
242 2188 L
239 2185 L
234 2184 L
230 2184 L
226 2185 L
224 2187 L
223 2190 L
223 2191 L
224 2193 L
226 2191 L
224 2190 L
234 2204 M 237 2203 L
240 2200 L
242 2196 L
242 2193 L
240 2188 L
237 2185 L
234 2184 L
226 2214 M 240 2214 L
226 2213 M 233 2213 L
240 2214 L
2188 291 M 2188 2188 L
2188 291 M 2136 291 L
2188 405 M 2162 405 L
2188 472 M 2162 472 L
2188 520 M 2162 520 L
2188 556 M 2162 556 L
2188 586 M 2162 586 L
2188 612 M 2162 612 L
2188 634 M 2162 634 L
2188 653 M 2162 653 L
2188 671 M 2136 671 L
2188 785 M 2162 785 L
2188 851 M 2162 851 L
2188 899 M 2162 899 L
2188 936 M 2162 936 L
2188 966 M 2162 966 L
2188 991 M 2162 991 L
2188 1013 M 2162 1013 L
2188 1032 M 2162 1032 L
2188 1050 M 2136 1050 L
2188 1164 M 2162 1164 L
2188 1231 M 2162 1231 L
2188 1278 M 2162 1278 L
2188 1315 M 2162 1315 L
2188 1345 M 2162 1345 L
2188 1370 M 2162 1370 L
2188 1392 M 2162 1392 L
2188 1412 M 2162 1412 L
2188 1429 M 2136 1429 L
2188 1543 M 2162 1543 L
2188 1610 M 2162 1610 L
2188 1657 M 2162 1657 L
2188 1694 M 2162 1694 L
2188 1724 M 2162 1724 L
2188 1750 M 2162 1750 L
2188 1772 M 2162 1772 L
2188 1791 M 2162 1791 L
2188 1808 M 2136 1808 L
2188 1922 M 2162 1922 L
2188 1989 M 2162 1989 L
2188 2037 M 2162 2037 L
2188 2073 M 2162 2073 L
2188 2103 M 2162 2103 L
2188 2129 M 2162 2129 L
2188 2151 M 2162 2151 L
2188 2170 M 2162 2170 L
2188 2188 M 2136 2188 L
CS [] 0 setdash M
CS [] 0 setdash M
1121 103 M 1129 153 M 1160 103 L
1131 153 M 1162 103 L
1162 153 M 1129 103 L
1124 153 M 1138 153 L
1153 153 M 1167 153 L
1124 103 M 1138 103 L
1153 103 M 1167 103 L
1182 103 M 1179 105 L
1182 107 L
1184 105 L
1184 100 L
1182 95 L
1179 93 L
1244 136 M 1244 86 L
1247 136 M 1247 86 L
1247 129 M 1251 134 L
1256 136 L
1261 136 L
1268 134 L
1273 129 L
1276 122 L
1276 117 L
1273 110 L
1268 105 L
1261 103 L
1256 103 L
1251 105 L
1247 110 L
1261 136 M 1266 134 L
1271 129 L
1273 122 L
1273 117 L
1271 110 L
1266 105 L
1261 103 L
1237 136 M 1247 136 L
1237 86 M 1254 86 L
1295 153 M 1292 151 L
1295 148 L
1297 151 L
1295 153 L
1295 136 M 1295 103 L
1297 136 M 1297 103 L
1288 136 M 1297 136 L
1288 103 M 1304 103 L
1319 136 M 1345 103 L
1321 136 M 1348 103 L
1348 136 M 1319 103 L
1314 136 M 1328 136 L
1338 136 M 1353 136 L
1314 103 M 1328 103 L
1338 103 M 1353 103 L
CS [] 0 setdash M
CS [] 0 setdash M
62 1022 M 11 1034 M 62 1034 L
11 1036 M 62 1036 L
11 1026 M 11 1055 L
14 1062 L
16 1065 L
21 1067 L
26 1067 L
30 1065 L
33 1062 L
35 1055 L
11 1055 M 14 1060 L
16 1062 L
21 1065 L
26 1065 L
30 1062 L
33 1060 L
35 1055 L
35 1036 M 35 1055 L
38 1062 L
40 1065 L
45 1067 L
52 1067 L
57 1065 L
59 1062 L
62 1055 L
62 1026 L
35 1055 M 38 1060 L
40 1062 L
45 1065 L
52 1065 L
57 1062 L
59 1060 L
62 1055 L
28 1087 M 62 1087 L
28 1089 M 62 1089 L
42 1089 M 35 1091 L
30 1096 L
28 1101 L
28 1108 L
30 1111 L
33 1111 L
35 1108 L
33 1106 L
30 1108 L
28 1079 M 28 1089 L
62 1079 M 62 1096 L
11 1127 M 14 1125 L
16 1127 L
14 1130 L
11 1127 L
28 1127 M 62 1127 L
28 1130 M 62 1130 L
28 1120 M 28 1130 L
62 1120 M 62 1137 L
28 1161 M 30 1156 L
33 1154 L
38 1152 L
42 1152 L
47 1154 L
50 1156 L
52 1161 L
52 1166 L
50 1171 L
47 1173 L
42 1176 L
38 1176 L
33 1173 L
30 1171 L
28 1166 L
28 1161 L
30 1156 M 35 1154 L
45 1154 L
50 1156 L
50 1171 M 45 1173 L
35 1173 L
30 1171 L
33 1173 M 30 1176 L
28 1180 L
30 1180 L
30 1176 L
47 1154 M 50 1152 L
54 1149 L
57 1149 L
62 1152 L
64 1159 L
64 1171 L
67 1178 L
69 1180 L
57 1149 M 59 1152 L
62 1159 L
62 1171 L
64 1178 L
69 1180 L
71 1180 L
76 1178 L
79 1171 L
79 1156 L
76 1149 L
71 1147 L
69 1147 L
64 1149 L
62 1156 L
11 1200 M 62 1200 L
11 1202 M 62 1202 L
35 1202 M 30 1207 L
28 1214 L
28 1219 L
30 1226 L
35 1229 L
62 1229 L
28 1219 M 30 1224 L
35 1226 L
62 1226 L
11 1192 M 11 1202 L
62 1192 M 62 1209 L
62 1219 M 62 1236 L
11 1253 M 52 1253 L
59 1255 L
62 1260 L
62 1265 L
59 1269 L
54 1272 L
11 1255 M 52 1255 L
59 1257 L
62 1260 L
28 1245 M 28 1265 L
28 1289 M 62 1289 L
28 1291 M 62 1291 L
35 1291 M 30 1296 L
28 1303 L
28 1308 L
30 1315 L
35 1318 L
62 1318 L
28 1308 M 30 1313 L
35 1315 L
62 1315 L
28 1282 M 28 1291 L
62 1282 M 62 1298 L
62 1308 M 62 1325 L
42 1339 M 42 1368 L
38 1368 L
33 1366 L
30 1363 L
CS M
28 1359 L
28 1351 L
30 1344 L
35 1339 L
42 1337 L
47 1337 L
54 1339 L
59 1344 L
62 1351 L
62 1356 L
59 1363 L
54 1368 L
42 1366 M 35 1366 L
30 1363 L
28 1351 M 30 1347 L
35 1342 L
42 1339 L
47 1339 L
54 1342 L
59 1347 L
62 1351 L
33 1407 M 28 1409 L
38 1409 L
33 1407 L
30 1404 L
28 1399 L
28 1390 L
30 1385 L
33 1383 L
38 1383 L
40 1385 L
42 1390 L
47 1402 L
50 1407 L
52 1409 L
35 1383 M 38 1385 L
40 1390 L
45 1402 L
47 1407 L
50 1409 L
57 1409 L
59 1407 L
62 1402 L
62 1392 L
59 1387 L
57 1385 L
52 1383 L
62 1383 L
57 1385 L
33 1448 M 28 1450 L
38 1450 L
33 1448 L
30 1445 L
28 1440 L
28 1431 L
30 1426 L
33 1424 L
38 1424 L
40 1426 L
42 1431 L
47 1443 L
50 1448 L
52 1450 L
35 1424 M 38 1426 L
40 1431 L
45 1443 L
47 1448 L
50 1450 L
57 1450 L
59 1448 L
62 1443 L
62 1433 L
59 1428 L
57 1426 L
52 1424 L
62 1424 L
57 1426 L
CS [] 0 setdash M
291 405 M 301 405 L
301 291 L
339 291 M 339 405 L
358 405 L
358 405 L
377 405 L
377 520 L
396 520 L
396 472 L
415 472 L
415 291 L
433 291 M 433 405 L
452 405 L
452 405 L
471 405 L
471 405 L
490 405 L
490 405 L
509 405 L
509 405 L
528 405 L
528 472 L
547 472 L
547 472 L
566 472 L
566 520 L
585 520 L
585 472 L
604 472 L
604 520 L
623 520 L
623 472 L
642 472 L
642 520 L
661 520 L
661 556 L
680 556 L
680 520 L
699 520 L
699 586 L
718 586 L
718 556 L
737 556 L
737 520 L
756 520 L
756 634 L
775 634 L
775 671 L
794 671 L
794 586 L
813 586 L
813 653 L
832 653 L
832 671 L
851 671 L
851 653 L
870 653 L
870 714 L
889 714 L
889 758 L
908 758 L
908 671 L
927 671 L
927 714 L
945 714 L
945 653 L
964 653 L
964 793 L
983 793 L
983 671 L
1002 671 L
1002 800 L
1021 800 L
1021 815 L
1040 815 L
1040 840 L
1059 840 L
1059 821 L
1078 821 L
1078 877 L
1097 877 L
1097 862 L
1116 862 L
1116 914 L
1135 914 L
1135 914 L
1154 914 L
1154 951 L
1173 951 L
1173 925 L
1192 925 L
1192 914 L
1211 914 L
1211 922 L
1230 922 L
1230 907 L
1249 907 L
1249 936 L
1268 936 L
1268 907 L
1287 907 L
1287 922 L
1306 922 L
1306 942 L
1325 942 L
1325 936 L
1344 936 L
1344 872 L
1363 872 L
1363 1099 L
1382 1099 L
1382 1441 L
1401 1441 L
1401 1692 L
1420 1692 L
1420 1769 L
1439 1769 L
1439 1693 L
1458 1693 L
1458 1435 L
1476 1435 L
1476 1067 L
1495 1067 L
1495 785 L
1514 785 L
1514 785 L
1533 785 L
1533 714 L
1552 714 L
1552 700 L
1571 700 L
1571 586 L
1590 586 L
1590 726 L
1609 726 L
1609 700 L
1628 700 L
1628 586 L
1647 586 L
1647 556 L
1666 556 L
1666 700 L
1685 700 L
1685 556 L
1704 556 L
1704 556 L
1723 556 L
1723 472 L
1742 472 L
1742 520 L
1761 520 L
1761 653 L
1780 653 L
1780 520 L
1799 520 L
1799 291 L
1818 291 L
1818 405 L
1837 405 L
1837 520 L
1856 520 L
1856 520 L
1875 520 L
1875 634 L
1894 634 L
1894 405 L
1913 405 L
1913 472 L
1932 472 L
1932 405 L
1951 405 L
1951 405 L
1970 405 L
1970 291 L
1988 291 M 1988 520 L
2007 520 L
2007 291 L
2045 291 L
2045 405 L
2064 405 L
2064 291 L
2083 291 L
2083 472 L
2102 472 L
2102 472 L
2121 472 L
2121 405 L
2140 405 L
2140 472 L
2159 472 L
2159 556 L
2178 556 L
2178 291 L
CS [6 12] 0 setdash M
CS M 1 100 mul 72 div dup setlinewidth
/P [ /moveto cvx 0 5 -1 roll .05 add dup -2 div 0 exch /rmoveto cvx /rlineto cvx /stroke cvx ] cvx def
 255 0 0 C
1349 291 M 1353 453 L
1372 1030 L
1391 1442 L
1410 1689 L
1429 1771 L
1448 1689 L
1467 1442 L
1486 1030 L
1505 453 L
1509 291 L
CS [] 0 setdash M
CS M 1 100 mul 72 div dup setlinewidth
/P [ /moveto cvx 0 5 -1 roll .05 add dup -2 div 0 exch /rmoveto cvx /rlineto cvx /stroke cvx ] cvx def
 0 0 0 C
CS [6 12] 0 setdash M
CS M 1 100 mul 72 div dup setlinewidth
/P [ /moveto cvx 0 5 -1 roll .05 add dup -2 div 0 exch /rmoveto cvx /rlineto cvx /stroke cvx ] cvx def
 255 0 0 C
318 291 M 329 297 L
348 307 L
367 317 L
386 328 L
405 338 L
424 349 L
443 360 L
462 371 L
481 383 L
500 394 L
519 406 L
538 418 L
557 430 L
576 443 L
595 456 L
614 469 L
633 482 L
652 495 L
671 509 L
689 523 L
CS M
708 538 L
727 552 L
746 567 L
765 582 L
784 598 L
803 614 L
822 630 L
841 646 L
860 662 L
879 679 L
898 696 L
917 713 L
936 730 L
955 747 L
974 765 L
993 782 L
1012 799 L
1031 815 L
1050 831 L
1069 847 L
1088 861 L
1107 875 L
1126 887 L
1145 898 L
1164 907 L
1183 915 L
1202 920 L
1220 924 L
1239 925 L
1258 924 L
1277 920 L
1296 915 L
1315 907 L
1334 898 L
1353 887 L
1372 875 L
1391 861 L
1410 847 L
1429 831 L
1448 815 L
1467 799 L
1486 782 L
1505 765 L
1524 747 L
1543 730 L
1562 713 L
1581 696 L
1600 679 L
1619 662 L
1638 646 L
1657 630 L
1676 614 L
1695 598 L
1714 582 L
1732 567 L
1751 552 L
1770 538 L
1789 523 L
1808 509 L
1827 495 L
1846 482 L
1865 469 L
1884 456 L
1903 443 L
1922 430 L
1941 418 L
1960 406 L
1979 394 L
1998 383 L
2017 371 L
2036 360 L
2055 349 L
2074 338 L
2093 328 L
2112 317 L
2131 307 L
2150 297 L
2161 291 L
CS [] 0 setdash M
CS M 1 100 mul 72 div dup setlinewidth
/P [ /moveto cvx 0 5 -1 roll .05 add dup -2 div 0 exch /rmoveto cvx /rlineto cvx /stroke cvx ] cvx def
 0 0 0 C
CS [] 0 setdash M
CS M 1 100 mul 72 div dup setlinewidth
/P [ /moveto cvx 0 5 -1 roll .05 add dup -2 div 0 exch /rmoveto cvx /rlineto cvx /stroke cvx ] cvx def
 255 0 0 C
1353 291 M 1353 751 L
1372 1021 L
1391 1431 L
1410 1691 L
1429 1768 L
1448 1692 L
1467 1429 L
1486 998 L
1505 663 L
1505 291 L
CS [] 0 setdash M
CS M 1 100 mul 72 div dup setlinewidth
/P [ /moveto cvx 0 5 -1 roll .05 add dup -2 div 0 exch /rmoveto cvx /rlineto cvx /stroke cvx ] cvx def
 0 0 0 C
CS [] 0 setdash M
CS M 1 100 mul 72 div dup setlinewidth
/P [ /moveto cvx 0 5 -1 roll .05 add dup -2 div 0 exch /rmoveto cvx /rlineto cvx /stroke cvx ] cvx def
 255 0 0 C
442 291 M 443 292 L
462 308 L
481 322 L
500 336 L
519 349 L
538 361 L
557 373 L
576 384 L
595 394 L
614 404 L
633 413 L
652 422 L
671 454 L
689 480 L
708 499 L
727 530 L
746 553 L
765 577 L
784 595 L
803 611 L
822 626 L
841 640 L
860 653 L
879 665 L
898 676 L
917 687 L
936 697 L
955 706 L
974 714 L
993 725 L
1012 767 L
1031 809 L
1050 831 L
1069 851 L
1088 869 L
1107 884 L
1126 897 L
1145 907 L
1164 914 L
1183 919 L
1202 922 L
1220 923 L
1239 923 L
1258 921 L
1277 918 L
1296 916 L
1315 914 L
1334 911 L
1353 908 L
1372 904 L
1391 899 L
1410 892 L
1429 882 L
1448 870 L
1467 853 L
1486 831 L
1505 802 L
1524 766 L
1543 714 L
1562 685 L
1581 672 L
1600 659 L
1619 644 L
1638 628 L
1657 610 L
1676 592 L
1695 569 L
1714 543 L
1732 512 L
1751 487 L
1770 472 L
1789 450 L
1808 437 L
1827 421 L
1846 412 L
1865 403 L
1884 393 L
1903 383 L
1922 373 L
1941 361 L
1960 350 L
1979 337 L
1998 324 L
2017 310 L
2036 295 L
2041 291 L
CS [] 0 setdash M
CS M 1 100 mul 72 div dup setlinewidth
/P [ /moveto cvx 0 5 -1 roll .05 add dup -2 div 0 exch /rmoveto cvx /rlineto cvx /stroke cvx ] cvx def
 0 0 0 C
860 1992 M CS [] 0 setdash M
390 1975 M 399 2026 M 409 1975 L
402 2026 M 409 1987 L
418 2026 M 409 1975 L
418 2026 M 428 1975 L
421 2026 M 428 1987 L
438 2026 M 428 1975 L
392 2026 M 409 2026 L
430 2026 M 445 2026 L
459 2004 M 459 2002 L
457 2002 L
457 2004 L
459 2007 L
464 2009 L
474 2009 L
479 2007 L
481 2004 L
483 2000 L
483 1983 L
486 1978 L
488 1975 L
481 2004 M 481 1983 L
483 1978 L
488 1975 L
491 1975 L
481 2000 M 479 1997 L
464 1995 L
457 1992 L
455 1987 L
455 1983 L
457 1978 L
464 1975 L
471 1975 L
476 1978 L
481 1983 L
464 1995 M 459 1992 L
457 1987 L
457 1983 L
459 1978 L
464 1975 L
503 2009 M 517 1975 L
505 2009 M 517 1980 L
532 2009 M 517 1975 L
498 2009 M 512 2009 L
522 2009 M 536 2009 L
548 1995 M 577 1995 L
577 2000 L
575 2004 L
572 2007 L
568 2009 L
560 2009 L
553 2007 L
548 2002 L
546 1995 L
546 1990 L
548 1983 L
553 1978 L
560 1975 L
565 1975 L
572 1978 L
577 1983 L
575 1995 M 575 2002 L
572 2007 L
560 2009 M 556 2007 L
551 2002 L
548 1995 L
548 1990 L
551 1983 L
556 1978 L
560 1975 L
597 2026 M 597 1975 L
599 2026 M 599 1975 L
589 2026 M 599 2026 L
589 1975 M 606 1975 L
621 1995 M 650 1995 L
650 2000 L
647 2004 L
645 2007 L
640 2009 L
633 2009 L
625 2007 L
621 2002 L
618 1995 L
618 1990 L
621 1983 L
625 1978 L
633 1975 L
637 1975 L
645 1978 L
650 1983 L
647 1995 M 647 2002 L
645 2007 L
633 2009 M 628 2007 L
623 2002 L
621 1995 L
621 1990 L
623 1983 L
628 1978 L
633 1975 L
669 2026 M 669 1985 L
671 1978 L
676 1975 L
681 1975 L
686 1978 L
688 1983 L
671 2026 M 671 1985 L
674 1978 L
676 1975 L
662 2009 M 681 2009 L
767 2026 M 767 1975 L
770 2026 M 770 1975 L
767 2002 M 763 2007 L
758 2009 L
753 2009 L
746 2007 L
741 2002 L
739 1995 L
739 1990 L
741 1983 L
746 1978 L
753 1975 L
758 1975 L
763 1978 L
767 1983 L
753 2009 M 748 2007 L
743 2002 L
741 1995 L
CS M
741 1990 L
743 1983 L
748 1978 L
753 1975 L
760 2026 M 770 2026 L
767 1975 M 777 1975 L
792 1995 M 820 1995 L
820 2000 L
818 2004 L
816 2007 L
811 2009 L
804 2009 L
796 2007 L
792 2002 L
789 1995 L
789 1990 L
792 1983 L
796 1978 L
804 1975 L
808 1975 L
816 1978 L
820 1983 L
818 1995 M 818 2002 L
816 2007 L
804 2009 M 799 2007 L
794 2002 L
792 1995 L
792 1990 L
794 1983 L
799 1978 L
804 1975 L
864 2002 M 861 2000 L
864 1997 L
866 2000 L
866 2002 L
861 2007 L
857 2009 L
849 2009 L
842 2007 L
837 2002 L
835 1995 L
835 1990 L
837 1983 L
842 1978 L
849 1975 L
854 1975 L
861 1978 L
866 1983 L
849 2009 M 844 2007 L
840 2002 L
837 1995 L
837 1990 L
840 1983 L
844 1978 L
849 1975 L
895 2009 M 888 2007 L
883 2002 L
881 1995 L
881 1990 L
883 1983 L
888 1978 L
895 1975 L
900 1975 L
907 1978 L
912 1983 L
914 1990 L
914 1995 L
912 2002 L
907 2007 L
900 2009 L
895 2009 L
890 2007 L
885 2002 L
883 1995 L
883 1990 L
885 1983 L
890 1978 L
895 1975 L
900 1975 M 905 1978 L
909 1983 L
912 1990 L
912 1995 L
909 2002 L
905 2007 L
900 2009 L
934 2009 M 934 1975 L
936 2009 M 936 1975 L
936 2002 M 941 2007 L
948 2009 L
953 2009 L
960 2007 L
962 2002 L
962 1975 L
953 2009 M 958 2007 L
960 2002 L
960 1975 L
962 2002 M 967 2007 L
974 2009 L
979 2009 L
986 2007 L
989 2002 L
989 1975 L
979 2009 M 984 2007 L
986 2002 L
986 1975 L
926 2009 M 936 2009 L
926 1975 M 943 1975 L
953 1975 M 970 1975 L
979 1975 M 996 1975 L
1013 2009 M 1013 1959 L
1015 2009 M 1015 1959 L
1015 2002 M 1020 2007 L
1025 2009 L
1030 2009 L
1037 2007 L
1042 2002 L
1044 1995 L
1044 1990 L
1042 1983 L
1037 1978 L
1030 1975 L
1025 1975 L
1020 1978 L
1015 1983 L
1030 2009 M 1035 2007 L
1039 2002 L
1042 1995 L
1042 1990 L
1039 1983 L
1035 1978 L
1030 1975 L
1006 2009 M 1015 2009 L
1006 1959 M 1023 1959 L
1073 2009 M 1066 2007 L
1061 2002 L
1059 1995 L
1059 1990 L
1061 1983 L
1066 1978 L
1073 1975 L
1078 1975 L
1085 1978 L
1090 1983 L
1092 1990 L
1092 1995 L
1090 2002 L
1085 2007 L
1078 2009 L
1073 2009 L
1068 2007 L
1064 2002 L
1061 1995 L
1061 1990 L
1064 1983 L
1068 1978 L
1073 1975 L
1078 1975 M 1083 1978 L
1088 1983 L
1090 1990 L
1090 1995 L
1088 2002 L
1083 2007 L
1078 2009 L
1131 2004 M 1133 2009 L
1133 2000 L
1131 2004 L
1128 2007 L
1124 2009 L
1114 2009 L
1109 2007 L
1107 2004 L
1107 2000 L
1109 1997 L
1114 1995 L
1126 1990 L
1131 1987 L
1133 1985 L
1107 2002 M 1109 2000 L
1114 1997 L
1126 1992 L
1131 1990 L
1133 1987 L
1133 1980 L
1131 1978 L
1126 1975 L
1116 1975 L
1112 1978 L
1109 1980 L
1107 1985 L
1107 1975 L
1109 1980 L
1153 2026 M 1150 2024 L
1153 2021 L
1155 2024 L
1153 2026 L
1153 2009 M 1153 1975 L
1155 2009 M 1155 1975 L
1145 2009 M 1155 2009 L
1145 1975 M 1162 1975 L
1179 2026 M 1179 1985 L
1181 1978 L
1186 1975 L
1191 1975 L
1196 1978 L
1198 1983 L
1181 2026 M 1181 1985 L
1184 1978 L
1186 1975 L
1172 2009 M 1191 2009 L
1215 2026 M 1213 2024 L
1215 2021 L
1218 2024 L
1215 2026 L
1215 2009 M 1215 1975 L
1218 2009 M 1218 1975 L
1208 2009 M 1218 2009 L
1208 1975 M 1225 1975 L
1251 2009 M 1244 2007 L
1239 2002 L
1237 1995 L
1237 1990 L
1239 1983 L
1244 1978 L
1251 1975 L
1256 1975 L
1263 1978 L
1268 1983 L
1271 1990 L
1271 1995 L
1268 2002 L
1263 2007 L
1256 2009 L
1251 2009 L
1246 2007 L
1242 2002 L
1239 1995 L
1239 1990 L
1242 1983 L
1246 1978 L
1251 1975 L
1256 1975 M 1261 1978 L
1266 1983 L
1268 1990 L
1268 1995 L
1266 2002 L
1261 2007 L
1256 2009 L
1290 2009 M 1290 1975 L
1292 2009 M 1292 1975 L
1292 2002 M 1297 2007 L
1304 2009 L
1309 2009 L
1316 2007 L
1319 2002 L
1319 1975 L
1309 2009 M 1314 2007 L
1316 2002 L
1316 1975 L
1283 2009 M 1292 2009 L
1283 1975 M 1299 1975 L
1309 1975 M 1326 1975 L
1331 1975 M CS [] 0 setdash M
stroke
grestore
showpage
end
