\relax 
\@writefile{toc}{\contentsline {section}{\numberline {1}Introduction}{1}}
\@writefile{toc}{\contentsline {section}{\numberline {2}Effective Gaussian}{1}}
\newlabel{eq:rms-kernel}{{1}{1}}
\newlabel{eq:eff-gaussian}{{2}{1}}
\@writefile{lot}{\contentsline {table}{\numberline {1}{\ignorespaces \textsf  {gausswv}\ kernel}}{2}}
\newlabel{tab:gausswv}{{1}{2}}
\@writefile{lof}{\contentsline {figure}{\numberline {1}{\ignorespaces The ratio of the number of false detections in the images convolved with effective Gaussians as a function of the $\sigma $-significance. Effective Gaussians are for the \textsf  {gausswv}\ kernel.}}{2}}
\newlabel{fig:ratio-scales}{{1}{2}}
\@writefile{toc}{\contentsline {section}{\numberline {3}The number of false detections for effective Gaussian convolutions}{2}}
\@writefile{lof}{\contentsline {figure}{\numberline {2}{\ignorespaces The number of false detectiones per $512\times 512$ image convolved with effective Gaussians as a function of the $\sigma $-significance. Effective Gaussians are for the \textsf  {gausswv}\ kernel. Numbers are ajusted to those on scale 3 using the scaling discussed in the text.}}{3}}
\newlabel{fig:ratio-scales}{{2}{3}}
