%!PS-Adobe-2.0 EPSF-2.0
%%Creator: SM
%%BoundingBox: 18 144 592 718
%%DocumentFonts: Helvetica
%%EndComments
 20 dict begin
72 300 div dup scale
1 setlinejoin 0 setlinecap
/Courier findfont 55 scalefont setfont 
/B { currentpoint stroke newpath moveto } def
/F { moveto 0 setlinecap} def
/C { CS M 1 1 3 { pop 3 1 roll 255 div } for SET_COLOUR } def
/CS { currentpoint stroke } def
/CF { currentpoint fill } def
/L { lineto } def /M { moveto } def
/P { moveto 0 1 rlineto stroke } def
/T { currentlinecap exch 1 setlinecap show setlinecap } def
errordict /nocurrentpoint { pop 0 0 M currentpoint } put
/SET_COLOUR { setrgbcolor } def
 80 600 translate
gsave
CS [] 0 setdash M
CS M 1 100 mul 72 div dup setlinewidth
/P [ /moveto cvx 0 5 -1 roll .05 add dup -2 div 0 exch /rmoveto cvx /rlineto cvx /stroke cvx ] cvx def
 0 0 0 C
 0 0 0 C
CS [] 0 setdash M
292 292 M 2188 292 L
2188 2188 L
292 2188 L
292 292 L
2188 292 L
292 292 M 2188 292 L
292 292 M 292 334 L
272 213 M 290 255 M 284 253 L
280 247 L
278 237 L
278 231 L
280 221 L
284 215 L
290 213 L
294 213 L
300 215 L
304 221 L
306 231 L
306 237 L
304 247 L
300 253 L
294 255 L
290 255 L
286 253 L
284 251 L
282 247 L
280 237 L
280 231 L
282 221 L
284 217 L
286 215 L
290 213 L
294 213 M 298 215 L
300 217 L
302 221 L
304 231 L
304 237 L
302 247 L
300 251 L
298 253 L
294 255 L
450 292 M 450 313 L
608 292 M 608 313 L
766 292 M 766 313 L
924 292 M 924 334 L
904 213 M 912 247 M 914 245 L
912 243 L
910 245 L
910 247 L
912 251 L
914 253 L
920 255 L
928 255 L
934 253 L
936 251 L
938 247 L
938 243 L
936 239 L
930 235 L
920 231 L
916 229 L
912 225 L
910 219 L
910 213 L
928 255 M 932 253 L
934 251 L
936 247 L
936 243 L
934 239 L
928 235 L
920 231 L
910 217 M 912 219 L
916 219 L
926 215 L
932 215 L
936 217 L
938 219 L
916 219 M 926 213 L
934 213 L
936 215 L
938 219 L
938 223 L
1082 292 M 1082 313 L
1240 292 M 1240 313 L
1398 292 M 1398 313 L
1556 292 M 1556 334 L
1536 213 M 1560 251 M 1560 213 L
1562 255 M 1562 213 L
1562 255 M 1540 225 L
1572 225 L
1554 213 M 1568 213 L
1714 292 M 1714 313 L
1872 292 M 1872 313 L
2030 292 M 2030 313 L
2188 292 M 2188 334 L
2168 213 M 2198 249 M 2196 247 L
2198 245 L
2200 247 L
2200 249 L
2198 253 L
2194 255 L
2188 255 L
2182 253 L
2178 249 L
2176 245 L
2174 237 L
2174 225 L
2176 219 L
2180 215 L
2186 213 L
2190 213 L
2196 215 L
2200 219 L
2202 225 L
2202 227 L
2200 233 L
2196 237 L
2190 239 L
2188 239 L
2182 237 L
2178 233 L
2176 227 L
2188 255 M 2184 253 L
2180 249 L
2178 245 L
2176 237 L
2176 225 L
2178 219 L
2182 215 L
2186 213 L
2190 213 M 2194 215 L
2198 219 L
2200 225 L
2200 227 L
2198 233 L
2194 237 L
2190 239 L
292 2188 M 2188 2188 L
292 2188 M 292 2145 L
450 2188 M 450 2167 L
608 2188 M 608 2167 L
766 2188 M 766 2167 L
924 2188 M 924 2145 L
1082 2188 M 1082 2167 L
1240 2188 M 1240 2167 L
1398 2188 M 1398 2167 L
1556 2188 M 1556 2145 L
1714 2188 M 1714 2167 L
1872 2188 M 1872 2167 L
2030 2188 M 2030 2167 L
2188 2188 M 2188 2145 L
292 292 M 292 2188 L
292 292 M 334 292 L
215 271 M 233 313 M 227 311 L
223 305 L
221 295 L
221 289 L
223 279 L
227 273 L
233 271 L
237 271 L
243 273 L
247 279 L
249 289 L
249 295 L
247 305 L
243 311 L
237 313 L
233 313 L
229 311 L
227 309 L
225 305 L
223 295 L
223 289 L
225 279 L
227 275 L
229 273 L
233 271 L
237 271 M 241 273 L
243 275 L
245 279 L
247 289 L
247 295 L
245 305 L
243 309 L
241 311 L
237 313 L
292 387 M 313 387 L
292 481 M 313 481 L
292 576 M 313 576 L
292 671 M 313 671 L
292 766 M 334 766 L
215 745 M 225 787 M 221 767 L
225 771 L
231 773 L
237 773 L
243 771 L
247 767 L
249 761 L
249 757 L
247 751 L
243 747 L
237 745 L
231 745 L
225 747 L
223 749 L
221 753 L
221 755 L
223 757 L
225 755 L
223 753 L
237 773 M 241 771 L
245 767 L
247 761 L
247 757 L
245 751 L
241 747 L
237 745 L
225 787 M 245 787 L
225 785 M 235 785 L
245 787 L
292 861 M 313 861 L
292 955 M 313 955 L
292 1050 M 313 1050 L
292 1145 M 313 1145 L
292 1240 M 334 1240 L
175 1219 M 187 1253 M 191 1255 L
197 1261 L
197 1219 L
195 1259 M 195 1219 L
187 1219 M 205 1219 L
233 1261 M 227 1259 L
223 1253 L
221 1243 L
221 1237 L
223 1227 L
227 1221 L
233 1219 L
237 1219 L
243 1221 L
247 1227 L
249 1237 L
249 1243 L
247 1253 L
243 1259 L
237 1261 L
233 1261 L
229 1259 L
227 1257 L
225 1253 L
223 1243 L
223 1237 L
225 1227 L
227 1223 L
229 1221 L
233 1219 L
237 1219 M 241 1221 L
243 1223 L
245 1227 L
247 1237 L
247 1243 L
245 1253 L
243 1257 L
241 1259 L
237 1261 L
292 1335 M 313 1335 L
292 1430 M 313 1430 L
292 1524 M 313 1524 L
292 1619 M 313 1619 L
292 1714 M 334 1714 L
175 1693 M 187 1727 M 191 1729 L
197 1735 L
197 1693 L
195 1733 M 195 1693 L
187 1693 M 205 1693 L
225 1735 M 221 1715 L
225 1719 L
231 1721 L
237 1721 L
243 1719 L
247 1715 L
249 1709 L
249 1705 L
247 1699 L
243 1695 L
237 1693 L
231 1693 L
225 1695 L
223 1697 L
221 1701 L
221 1703 L
223 1705 L
225 1703 L
223 1701 L
237 1721 M 241 1719 L
245 1715 L
247 1709 L
247 1705 L
245 1699 L
241 1695 L
CS M
237 1693 L
225 1735 M 245 1735 L
225 1733 M 235 1733 L
245 1735 L
292 1809 M 313 1809 L
292 1904 M 313 1904 L
292 1998 M 313 1998 L
292 2093 M 313 2093 L
292 2188 M 334 2188 L
175 2167 M 183 2201 M 185 2199 L
183 2197 L
181 2199 L
181 2201 L
183 2205 L
185 2207 L
191 2209 L
199 2209 L
205 2207 L
207 2205 L
209 2201 L
209 2197 L
207 2193 L
201 2189 L
191 2185 L
187 2183 L
183 2179 L
181 2173 L
181 2167 L
199 2209 M 203 2207 L
205 2205 L
207 2201 L
207 2197 L
205 2193 L
199 2189 L
191 2185 L
181 2171 M 183 2173 L
187 2173 L
197 2169 L
203 2169 L
207 2171 L
209 2173 L
187 2173 M 197 2167 L
205 2167 L
207 2169 L
209 2173 L
209 2177 L
233 2209 M 227 2207 L
223 2201 L
221 2191 L
221 2185 L
223 2175 L
227 2169 L
233 2167 L
237 2167 L
243 2169 L
247 2175 L
249 2185 L
249 2191 L
247 2201 L
243 2207 L
237 2209 L
233 2209 L
229 2207 L
227 2205 L
225 2201 L
223 2191 L
223 2185 L
225 2175 L
227 2171 L
229 2169 L
233 2167 L
237 2167 M 241 2169 L
243 2171 L
245 2175 L
247 2185 L
247 2191 L
245 2201 L
243 2205 L
241 2207 L
237 2209 L
2188 292 M 2188 2188 L
2188 292 M 2145 292 L
2188 387 M 2167 387 L
2188 481 M 2167 481 L
2188 576 M 2167 576 L
2188 671 M 2167 671 L
2188 766 M 2145 766 L
2188 861 M 2167 861 L
2188 955 M 2167 955 L
2188 1050 M 2167 1050 L
2188 1145 M 2167 1145 L
2188 1240 M 2145 1240 L
2188 1335 M 2167 1335 L
2188 1430 M 2167 1430 L
2188 1524 M 2167 1524 L
2188 1619 M 2167 1619 L
2188 1714 M 2145 1714 L
2188 1809 M 2167 1809 L
2188 1904 M 2167 1904 L
2188 1998 M 2167 1998 L
2188 2093 M 2167 2093 L
2188 2188 M 2145 2188 L
CS [] 0 setdash M
611 1817 M 617 1822 L
619 1828 L
617 1835 L
611 1840 L
604 1840 L
598 1835 L
596 1828 L
598 1822 L
604 1817 L
611 1817 L
927 1780 M 933 1785 L
935 1792 L
933 1798 L
927 1803 L
920 1803 L
914 1798 L
912 1791 L
914 1785 L
920 1780 L
927 1780 L
1244 1530 M 1249 1534 L
1252 1541 L
1249 1548 L
1244 1552 L
1236 1552 L
1230 1548 L
1228 1541 L
1230 1534 L
1236 1530 L
1244 1530 L
1560 1532 M 1565 1536 L
1568 1543 L
1565 1550 L
1560 1554 L
1552 1554 L
1546 1550 L
1544 1543 L
1546 1536 L
1552 1532 L
1560 1532 L
1718 1790 M 1723 1794 L
1726 1801 L
1723 1808 L
1718 1812 L
1710 1812 L
1705 1808 L
1702 1801 L
1705 1794 L
1710 1790 L
1718 1790 L
 255 0 0 C
611 415 M 617 419 L
619 426 L
617 433 L
611 437 L
604 437 L
598 433 L
596 426 L
598 419 L
604 415 L
611 415 L
927 413 M 933 417 L
935 424 L
933 431 L
927 435 L
920 435 L
914 431 L
912 424 L
914 417 L
920 413 L
927 413 L
1244 411 M 1249 415 L
1252 422 L
1249 429 L
1244 433 L
1236 433 L
1230 429 L
1228 422 L
1230 415 L
1236 411 L
1244 411 L
1560 408 M 1565 412 L
1568 419 L
1565 426 L
1560 430 L
1552 430 L
1546 426 L
1544 419 L
1546 412 L
1552 408 L
1560 408 L
1718 396 M 1723 400 L
1726 407 L
1723 414 L
1718 418 L
1710 418 L
1705 414 L
1702 407 L
1705 400 L
1710 396 L
1718 396 L
 0 0 0 C
B
611 694 M 617 698 L
619 705 L
617 712 L
611 716 L
604 716 L
598 712 L
596 705 L
598 698 L
604 694 L
611 694 L
CF M
B
927 688 M 933 692 L
935 699 L
933 706 L
927 710 L
920 710 L
914 706 L
912 699 L
914 692 L
920 688 L
927 688 L
CF M
B
1244 651 M 1249 655 L
1252 662 L
1249 669 L
1244 673 L
1236 673 L
1230 669 L
1228 662 L
1230 655 L
1236 651 L
1244 651 L
CF M
B
1560 692 M 1565 696 L
1568 703 L
1565 710 L
1560 714 L
1552 714 L
1547 710 L
1544 703 L
1547 696 L
1552 692 L
1560 692 L
CF M
B
1718 726 M 1723 730 L
1726 737 L
1723 744 L
1718 748 L
1710 748 L
1705 744 L
1702 737 L
1705 730 L
1710 726 L
1718 726 L
CF M
 255 0 0 C
B
611 665 M 617 669 L
619 676 L
617 683 L
611 687 L
604 687 L
598 683 L
596 676 L
598 669 L
604 665 L
611 665 L
CF M
B
927 671 M 933 675 L
935 682 L
933 689 L
927 693 L
920 693 L
914 689 L
912 682 L
914 675 L
920 671 L
927 671 L
CF M
B
1244 666 M 1249 670 L
1252 677 L
1249 684 L
1244 688 L
1236 688 L
1230 684 L
1228 677 L
1230 670 L
1236 666 L
1244 666 L
CF M
B
1560 629 M 1565 633 L
1568 640 L
1565 647 L
1560 651 L
1552 651 L
1547 647 L
1544 640 L
1547 633 L
1552 629 L
1560 629 L
CF M
B
1718 565 M 1723 569 L
1726 576 L
1723 583 L
1718 587 L
1710 587 L
1705 583 L
1702 576 L
1705 569 L
1710 565 L
1718 565 L
CF M
 0 0 255 C
B
611 707 M 617 711 L
619 718 L
617 725 L
611 729 L
604 729 L
598 725 L
596 718 L
598 711 L
604 707 L
611 707 L
CF M
B
927 683 M 933 687 L
935 694 L
933 701 L
927 705 L
920 705 L
914 701 L
912 694 L
914 687 L
920 683 L
927 683 L
CF M
B
1244 828 M 1249 832 L
1252 839 L
1249 846 L
1244 850 L
1236 850 L
1230 846 L
1228 839 L
1230 832 L
1236 828 L
1244 828 L
CF M
B
1560 792 M 1565 796 L
1568 803 L
1565 810 L
1560 814 L
1552 814 L
1547 810 L
1544 803 L
1547 796 L
1552 792 L
1560 792 L
CF M
B
1718 527 M 1723 531 L
1726 538 L
1723 545 L
1718 549 L
1710 549 L
1705 545 L
1702 538 L
1705 531 L
1710 527 L
1718 527 L
CF M
 0 0 0 C
1835 1776 M CS [] 0 setdash M
1861 1800 M 1863 1804 L
1863 1796 L
1861 1800 L
1859 1802 L
1855 1804 L
1847 1804 L
1843 1802 L
1841 1800 L
1841 1796 L
1843 1794 L
1847 1792 L
1857 1788 L
1861 1786 L
1863 1784 L
1841 1798 M 1843 1796 L
1847 1794 L
1857 1790 L
1861 1788 L
1863 1786 L
1863 1780 L
1861 1778 L
1857 1776 L
1849 1776 L
1845 1778 L
1843 1780 L
1841 1784 L
1841 1776 L
1843 1780 L
1899 1798 M 1897 1796 L
1899 1794 L
1901 1796 L
1901 1798 L
1897 1802 L
1893 1804 L
1887 1804 L
1881 1802 L
1877 1798 L
1875 1792 L
1875 1788 L
1877 1782 L
1881 1778 L
1887 1776 L
1891 1776 L
1897 1778 L
1901 1782 L
1887 1804 M 1883 1802 L
1879 1798 L
1877 1792 L
1877 1788 L
1879 1782 L
1883 1778 L
1887 1776 L
1917 1800 M 1917 1798 L
1915 1798 L
1915 1800 L
1917 1802 L
1921 1804 L
1929 1804 L
1933 1802 L
1935 1800 L
1937 1796 L
1937 1782 L
1939 1778 L
1941 1776 L
1935 1800 M 1935 1782 L
1937 1778 L
1941 1776 L
1943 1776 L
1935 1796 M 1933 1794 L
1921 1792 L
1915 1790 L
1913 1786 L
1913 1782 L
1915 1778 L
1921 1776 L
1927 1776 L
1931 1778 L
1935 1782 L
1921 1792 M 1917 1790 L
1915 1786 L
1915 1782 L
1917 1778 L
1921 1776 L
1957 1818 M 1957 1776 L
1959 1818 M 1959 1776 L
1951 1818 M 1959 1818 L
1951 1776 M 1965 1776 L
1977 1792 M 2001 1792 L
2001 1796 L
1999 1800 L
1997 1802 L
1993 1804 L
1987 1804 L
1981 1802 L
1977 1798 L
1975 1792 L
1975 1788 L
1977 1782 L
1981 1778 L
1987 1776 L
1991 1776 L
1997 1778 L
2001 1782 L
1999 1792 M 1999 1798 L
1997 1802 L
1987 1804 M 1983 1802 L
1979 1798 L
1977 1792 L
1977 1788 L
1979 1782 L
1983 1778 L
1987 1776 L
2051 1810 M 2055 1812 L
2061 1818 L
2061 1776 L
2059 1816 M 2059 1776 L
2051 1776 M 2069 1776 L
2119 1826 M 2083 1762 L
2131 1810 M 2133 1808 L
2131 1806 L
2129 1808 L
2129 1810 L
2131 1814 L
2133 1816 L
2139 1818 L
2147 1818 L
2153 1816 L
2155 1814 L
2157 1810 L
2157 1806 L
2155 1802 L
2149 1798 L
2139 1794 L
2135 1792 L
2131 1788 L
2129 1782 L
2129 1776 L
2147 1818 M 2151 1816 L
2153 1814 L
2155 1810 L
2155 1806 L
2153 1802 L
2147 1798 L
2139 1794 L
2129 1780 M 2131 1782 L
2135 1782 L
2145 1778 L
2151 1778 L
2155 1780 L
2157 1782 L
2135 1782 M 2145 1776 L
2153 1776 L
2155 1778 L
2157 1782 L
2157 1786 L
2164 1776 M CS [] 0 setdash M
1835 766 M CS [] 0 setdash M
1843 800 M 1845 798 L
1843 796 L
1841 798 L
1841 800 L
1843 804 L
1845 806 L
1851 808 L
1859 808 L
1865 806 L
1867 802 L
1867 796 L
1865 792 L
1859 790 L
1853 790 L
1859 808 M 1863 806 L
1865 802 L
1865 796 L
1863 792 L
1859 790 L
1863 788 L
1867 784 L
1869 780 L
1869 774 L
1867 770 L
1865 768 L
1859 766 L
1851 766 L
1845 768 L
1843 770 L
1841 774 L
1841 776 L
1843 778 L
1845 776 L
1843 774 L
1865 786 M 1867 780 L
1867 774 L
1865 770 L
1863 768 L
1859 766 L
1915 816 M 1879 752 L
1943 804 M 1943 766 L
1945 808 M 1945 766 L
1945 808 M 1923 778 L
1955 778 L
1937 766 M 1951 766 L
1969 766 M 1967 768 L
1969 770 L
1971 768 L
1971 764 L
1969 760 L
1967 758 L
2035 804 M 2035 766 L
2037 808 M 2037 766 L
2037 808 M 2015 778 L
2047 778 L
2029 766 M 2043 766 L
2091 816 M 2055 752 L
2105 808 M 2101 788 L
2105 792 L
2111 794 L
2117 794 L
2123 792 L
2127 788 L
2129 782 L
2129 778 L
2127 772 L
2123 768 L
2117 766 L
2111 766 L
2105 768 L
2103 770 L
2101 774 L
2101 776 L
2103 778 L
2105 776 L
2103 774 L
2117 794 M 2121 792 L
2125 788 L
2127 782 L
2127 778 L
2125 772 L
2121 768 L
2117 766 L
2105 808 M 2125 808 L
2105 806 M 2115 806 L
2125 808 L
2146 766 M 2144 768 L
2146 770 L
2148 768 L
2148 764 L
2146 760 L
2144 758 L
2198 808 M 2194 788 L
2198 792 L
2204 794 L
2210 794 L
2216 792 L
2220 788 L
2222 782 L
2222 778 L
2220 772 L
2216 768 L
2210 766 L
2204 766 L
2198 768 L
2196 770 L
2194 774 L
2194 776 L
2196 778 L
2198 776 L
2196 774 L
2210 794 M 2214 792 L
2218 788 L
2220 782 L
2220 778 L
2218 772 L
2214 768 L
2210 766 L
2198 808 M 2218 808 L
2198 806 M 2208 806 L
2218 808 L
2268 816 M 2232 752 L
2302 802 M 2300 800 L
2302 798 L
2304 800 L
2304 802 L
2302 806 L
2298 808 L
2292 808 L
2286 806 L
2282 802 L
2280 798 L
2278 790 L
2278 778 L
2280 772 L
2284 768 L
2290 766 L
2294 766 L
2300 768 L
2304 772 L
2306 778 L
2306 780 L
2304 786 L
2300 790 L
2294 792 L
CS M
2292 792 L
2286 790 L
2282 786 L
2280 780 L
2292 808 M 2288 806 L
2284 802 L
2282 798 L
2280 790 L
2280 778 L
2282 772 L
2286 768 L
2290 766 L
2294 766 M 2298 768 L
2302 772 L
2304 778 L
2304 780 L
2302 786 L
2298 790 L
2294 792 L
CS [] 0 setdash M
1835 424 M CS [] 0 setdash M
1843 458 M 1845 457 L
1843 454 L
1841 457 L
1841 458 L
1843 462 L
1845 465 L
1851 467 L
1859 467 L
1865 465 L
1867 462 L
1869 458 L
1869 454 L
1867 450 L
1861 446 L
1851 442 L
1847 440 L
1843 436 L
1841 430 L
1841 424 L
1859 467 M 1863 465 L
1865 462 L
1867 458 L
1867 454 L
1865 450 L
1859 446 L
1851 442 L
1841 428 M 1843 430 L
1847 430 L
1857 426 L
1863 426 L
1867 428 L
1869 430 L
1847 430 M 1857 424 L
1865 424 L
1867 426 L
1869 430 L
1869 434 L
1915 475 M 1879 410 L
1927 458 M 1929 457 L
1927 454 L
1925 457 L
1925 458 L
1927 462 L
1929 465 L
1935 467 L
1943 467 L
1949 465 L
1951 461 L
1951 454 L
1949 450 L
1943 448 L
1937 448 L
1943 467 M 1947 465 L
1949 461 L
1949 454 L
1947 450 L
1943 448 L
1947 446 L
1951 442 L
1953 438 L
1953 432 L
1951 428 L
1949 426 L
1943 424 L
1935 424 L
1929 426 L
1927 428 L
1925 432 L
1925 434 L
1927 436 L
1929 434 L
1927 432 L
1949 444 M 1951 438 L
1951 432 L
1949 428 L
1947 426 L
1943 424 L
1959 424 M CS [] 0 setdash M
CS [] 0 setdash M
989 135 M 1027 163 M 1007 163 L
1001 161 L
997 155 L
995 149 L
995 143 L
997 139 L
999 137 L
1003 135 L
1007 135 L
1013 137 L
1017 143 L
1019 149 L
1019 155 L
1017 159 L
1015 161 L
1011 163 L
1007 163 M 1003 161 L
999 155 L
997 149 L
997 141 L
999 137 L
1007 135 M 1011 137 L
1015 143 L
1017 149 L
1017 157 L
1015 161 L
1027 161 L
1039 153 M 1075 153 L
1109 159 M 1111 163 L
1111 155 L
1109 159 L
1107 161 L
1103 163 L
1095 163 L
1091 161 L
1089 159 L
1089 155 L
1091 153 L
1095 151 L
1105 147 L
1109 145 L
1111 143 L
1089 157 M 1091 155 L
1095 153 L
1105 149 L
1109 147 L
1111 145 L
1111 139 L
1109 137 L
1105 135 L
1097 135 L
1093 137 L
1091 139 L
1089 143 L
1089 135 L
1091 139 L
1127 177 M 1125 175 L
1127 173 L
1130 175 L
1127 177 L
1127 163 M 1127 135 L
1130 163 M 1130 135 L
1121 163 M 1130 163 L
1121 135 M 1135 135 L
1156 163 M 1152 161 L
1149 159 L
1148 155 L
1148 151 L
1149 147 L
1152 145 L
1156 143 L
1160 143 L
1164 145 L
1166 147 L
1168 151 L
1168 155 L
1166 159 L
1164 161 L
1160 163 L
1156 163 L
1152 161 M 1149 157 L
1149 149 L
1152 145 L
1164 145 M 1166 149 L
1166 157 L
1164 161 L
1166 159 M 1168 161 L
1172 163 L
1172 161 L
1168 161 L
1149 147 M 1148 145 L
1145 141 L
1145 139 L
1148 135 L
1153 133 L
1164 133 L
1170 131 L
1172 129 L
1145 139 M 1148 137 L
1153 135 L
1164 135 L
1170 133 L
1172 129 L
1172 127 L
1170 123 L
1164 121 L
1152 121 L
1145 123 L
1144 127 L
1144 129 L
1145 133 L
1152 135 L
1188 163 M 1188 135 L
1190 163 M 1190 135 L
1190 157 M 1194 161 L
1200 163 L
1204 163 L
1210 161 L
1212 157 L
1212 135 L
1204 163 M 1208 161 L
1210 157 L
1210 135 L
1182 163 M 1190 163 L
1182 135 M 1196 135 L
1204 135 M 1218 135 L
1232 177 M 1230 175 L
1232 173 L
1234 175 L
1232 177 L
1232 163 M 1232 135 L
1234 163 M 1234 135 L
1226 163 M 1234 163 L
1226 135 M 1240 135 L
1264 175 M 1262 173 L
1264 171 L
1266 173 L
1266 175 L
1264 177 L
1260 177 L
1256 175 L
1254 171 L
1254 135 L
1260 177 M 1258 175 L
1256 171 L
1256 135 L
1248 163 M 1264 163 L
1248 135 M 1262 135 L
1280 177 M 1278 175 L
1280 173 L
1282 175 L
1280 177 L
1280 163 M 1280 135 L
1282 163 M 1282 135 L
1274 163 M 1282 163 L
1274 135 M 1288 135 L
1322 157 M 1320 155 L
1322 153 L
1324 155 L
1324 157 L
1320 161 L
1316 163 L
1310 163 L
1304 161 L
1300 157 L
1298 151 L
1298 147 L
1300 141 L
1304 137 L
1310 135 L
1314 135 L
1320 137 L
1324 141 L
1310 163 M 1306 161 L
1302 157 L
1300 151 L
1300 147 L
1302 141 L
1306 137 L
1310 135 L
1340 159 M 1340 157 L
1338 157 L
1338 159 L
1340 161 L
1344 163 L
1352 163 L
1356 161 L
1358 159 L
1360 155 L
1360 141 L
1362 137 L
1364 135 L
1358 159 M 1358 141 L
1360 137 L
1364 135 L
1366 135 L
1358 155 M 1356 153 L
1344 151 L
1338 149 L
1336 145 L
1336 141 L
1338 137 L
1344 135 L
1350 135 L
CS M
1354 137 L
1358 141 L
1344 151 M 1340 149 L
1338 145 L
1338 141 L
1340 137 L
1344 135 L
1380 163 M 1380 135 L
1382 163 M 1382 135 L
1382 157 M 1386 161 L
1392 163 L
1396 163 L
1402 161 L
1404 157 L
1404 135 L
1396 163 M 1400 161 L
1402 157 L
1402 135 L
1374 163 M 1382 163 L
1374 135 M 1388 135 L
1396 135 M 1410 135 L
1444 157 M 1442 155 L
1444 153 L
1446 155 L
1446 157 L
1442 161 L
1438 163 L
1432 163 L
1426 161 L
1422 157 L
1420 151 L
1420 147 L
1422 141 L
1426 137 L
1432 135 L
1436 135 L
1442 137 L
1446 141 L
1432 163 M 1428 161 L
1424 157 L
1422 151 L
1422 147 L
1424 141 L
1428 137 L
1432 135 L
1460 151 M 1484 151 L
1484 155 L
1482 159 L
1480 161 L
1476 163 L
1470 163 L
1464 161 L
1460 157 L
1458 151 L
1458 147 L
1460 141 L
1464 137 L
1470 135 L
1474 135 L
1480 137 L
1484 141 L
1482 151 M 1482 157 L
1480 161 L
1470 163 M 1466 161 L
1462 157 L
1460 151 L
1460 147 L
1462 141 L
1466 137 L
1470 135 L
CS [] 0 setdash M
CS [] 0 setdash M
125 594 M 82 604 M 125 604 L
82 606 M 125 606 L
82 598 M 82 622 L
84 628 L
86 630 L
90 632 L
94 632 L
98 630 L
101 628 L
102 622 L
102 606 L
82 622 M 84 626 L
86 628 L
90 630 L
94 630 L
98 628 L
101 626 L
102 622 L
125 598 M 125 612 L
102 616 M 105 620 L
106 622 L
121 628 L
123 630 L
123 632 L
121 634 L
105 620 M 109 622 L
123 626 L
125 628 L
125 632 L
121 634 L
119 634 L
101 648 M 102 648 L
102 646 L
101 646 L
98 648 L
96 652 L
96 660 L
98 664 L
101 666 L
105 668 L
119 668 L
123 670 L
125 672 L
101 666 M 119 666 L
123 668 L
125 672 L
125 674 L
105 666 M 106 664 L
109 652 L
110 646 L
115 644 L
119 644 L
123 646 L
125 652 L
125 658 L
123 662 L
119 666 L
109 652 M 110 648 L
115 646 L
119 646 L
123 648 L
125 652 L
82 688 M 117 688 L
123 690 L
125 694 L
125 698 L
123 702 L
119 704 L
82 690 M 117 690 L
123 692 L
125 694 L
96 682 M 96 698 L
82 718 M 84 716 L
86 718 L
84 720 L
82 718 L
96 718 M 125 718 L
96 720 M 125 720 L
96 712 M 96 720 L
125 712 M 125 726 L
96 748 M 98 742 L
102 738 L
109 736 L
113 736 L
119 738 L
123 742 L
125 748 L
125 752 L
123 758 L
119 762 L
113 764 L
109 764 L
102 762 L
98 758 L
96 752 L
96 748 L
98 744 L
102 740 L
109 738 L
113 738 L
119 740 L
123 744 L
125 748 L
125 752 M 123 756 L
119 760 L
113 762 L
109 762 L
102 760 L
98 756 L
96 752 L
82 813 M 125 813 L
82 815 M 125 815 L
102 815 M 98 819 L
96 823 L
96 827 L
98 833 L
102 837 L
109 839 L
113 839 L
119 837 L
123 833 L
125 827 L
125 823 L
123 819 L
119 815 L
96 827 M 98 831 L
102 835 L
109 837 L
113 837 L
119 835 L
123 831 L
125 827 L
82 807 M 82 815 L
109 853 M 109 877 L
105 877 L
101 875 L
98 873 L
96 869 L
96 863 L
98 857 L
102 853 L
109 851 L
113 851 L
119 853 L
123 857 L
125 863 L
125 867 L
123 873 L
119 877 L
109 875 M 102 875 L
98 873 L
96 863 M 98 859 L
102 855 L
109 853 L
113 853 L
119 855 L
123 859 L
125 863 L
82 893 M 117 893 L
123 895 L
125 899 L
125 903 L
123 907 L
119 909 L
82 895 M 117 895 L
123 897 L
125 899 L
96 887 M 96 903 L
96 921 M 125 929 L
96 923 M 119 929 L
96 937 M 125 929 L
96 937 M 125 945 L
96 939 M 119 945 L
96 953 M 125 945 L
96 915 M 96 929 L
96 947 M 96 959 L
109 969 M 109 993 L
105 993 L
101 991 L
98 989 L
96 985 L
96 979 L
98 973 L
102 969 L
109 967 L
113 967 L
119 969 L
123 973 L
125 979 L
125 983 L
123 989 L
119 993 L
109 991 M 102 991 L
98 989 L
96 979 M 98 975 L
102 971 L
109 969 L
113 969 L
119 971 L
123 975 L
125 979 L
109 1007 M 109 1031 L
105 1031 L
101 1029 L
98 1027 L
96 1023 L
96 1017 L
98 1011 L
102 1007 L
109 1005 L
113 1005 L
119 1007 L
123 1011 L
125 1017 L
125 1021 L
123 1027 L
119 1031 L
109 1029 M 102 1029 L
98 1027 L
96 1017 M 98 1013 L
102 1009 L
109 1007 L
113 1007 L
119 1009 L
123 1013 L
125 1017 L
96 1047 M 125 1047 L
96 1049 M 125 1049 L
102 1049 M 98 1053 L
96 1059 L
CS M
96 1063 L
98 1069 L
102 1071 L
125 1071 L
96 1063 M 98 1067 L
102 1069 L
125 1069 L
96 1041 M 96 1049 L
125 1041 M 125 1055 L
125 1063 M 125 1077 L
82 1123 M 117 1123 L
123 1125 L
125 1129 L
125 1133 L
123 1137 L
119 1139 L
82 1125 M 117 1125 L
123 1127 L
125 1129 L
96 1117 M 96 1133 L
82 1153 M 125 1153 L
82 1155 M 125 1155 L
102 1155 M 98 1159 L
96 1165 L
96 1169 L
98 1175 L
102 1177 L
125 1177 L
96 1169 M 98 1173 L
102 1175 L
125 1175 L
82 1147 M 82 1155 L
125 1147 M 125 1161 L
125 1169 M 125 1183 L
109 1196 M 109 1220 L
105 1220 L
101 1218 L
98 1216 L
96 1212 L
96 1206 L
98 1200 L
102 1196 L
109 1193 L
113 1193 L
119 1196 L
123 1200 L
125 1206 L
125 1210 L
123 1216 L
119 1220 L
109 1218 M 102 1218 L
98 1216 L
96 1206 M 98 1201 L
102 1197 L
109 1196 L
113 1196 L
119 1197 L
123 1201 L
125 1206 L
101 1284 M 96 1286 L
105 1286 L
101 1284 L
98 1282 L
96 1278 L
96 1270 L
98 1266 L
101 1264 L
105 1264 L
106 1266 L
109 1270 L
113 1280 L
115 1284 L
117 1286 L
102 1264 M 105 1266 L
106 1270 L
110 1280 L
113 1284 L
115 1286 L
121 1286 L
123 1284 L
125 1280 L
125 1272 L
123 1268 L
121 1266 L
117 1264 L
125 1264 L
121 1266 L
96 1302 M 119 1302 L
123 1304 L
125 1310 L
125 1314 L
123 1320 L
119 1324 L
96 1304 M 119 1304 L
123 1306 L
125 1310 L
96 1324 M 125 1324 L
96 1326 M 125 1326 L
96 1296 M 96 1304 L
96 1318 M 96 1326 L
125 1324 M 125 1332 L
82 1346 M 125 1346 L
82 1348 M 125 1348 L
102 1348 M 98 1352 L
96 1356 L
96 1360 L
98 1366 L
102 1370 L
109 1372 L
113 1372 L
119 1370 L
123 1366 L
125 1360 L
125 1356 L
123 1352 L
119 1348 L
96 1360 M 98 1364 L
102 1368 L
109 1370 L
113 1370 L
119 1368 L
123 1364 L
125 1360 L
82 1340 M 82 1348 L
101 1404 M 96 1406 L
105 1406 L
101 1404 L
98 1402 L
96 1398 L
96 1390 L
98 1386 L
101 1384 L
105 1384 L
106 1386 L
109 1390 L
113 1400 L
115 1404 L
117 1406 L
102 1384 M 105 1386 L
106 1390 L
110 1400 L
113 1404 L
115 1406 L
121 1406 L
123 1404 L
125 1400 L
125 1392 L
123 1388 L
121 1386 L
117 1384 L
125 1384 L
121 1386 L
109 1420 M 109 1444 L
105 1444 L
101 1442 L
98 1440 L
96 1436 L
96 1430 L
98 1424 L
102 1420 L
109 1418 L
113 1418 L
119 1420 L
123 1424 L
125 1430 L
125 1434 L
123 1440 L
119 1444 L
109 1442 M 102 1442 L
98 1440 L
96 1430 M 98 1426 L
102 1422 L
109 1420 L
113 1420 L
119 1422 L
123 1426 L
125 1430 L
96 1480 M 139 1480 L
96 1482 M 139 1482 L
102 1480 M 98 1476 L
96 1472 L
96 1468 L
98 1462 L
102 1458 L
109 1456 L
113 1456 L
119 1458 L
123 1462 L
125 1468 L
125 1472 L
123 1476 L
119 1480 L
96 1468 M 98 1464 L
102 1460 L
109 1458 L
113 1458 L
119 1460 L
123 1464 L
125 1468 L
139 1474 M 139 1488 L
96 1500 M 119 1500 L
123 1502 L
125 1508 L
125 1512 L
123 1518 L
119 1522 L
96 1502 M 119 1502 L
123 1504 L
125 1508 L
96 1522 M 125 1522 L
96 1524 M 125 1524 L
96 1494 M 96 1502 L
96 1516 M 96 1524 L
125 1522 M 125 1530 L
109 1542 M 109 1566 L
105 1566 L
101 1564 L
98 1562 L
96 1558 L
96 1552 L
98 1546 L
102 1542 L
109 1540 L
113 1540 L
119 1542 L
123 1546 L
125 1552 L
125 1556 L
123 1562 L
119 1566 L
109 1564 M 102 1564 L
98 1562 L
96 1552 M 98 1548 L
102 1544 L
109 1542 L
113 1542 L
119 1544 L
123 1548 L
125 1552 L
96 1582 M 125 1582 L
96 1584 M 125 1584 L
102 1584 M 98 1588 L
96 1594 L
96 1598 L
98 1604 L
102 1606 L
125 1606 L
96 1598 M 98 1602 L
102 1604 L
125 1604 L
96 1576 M 96 1584 L
125 1576 M 125 1590 L
125 1598 M 125 1612 L
82 1626 M 117 1626 L
123 1629 L
125 1633 L
125 1637 L
123 1641 L
119 1643 L
82 1629 M 117 1629 L
123 1631 L
125 1633 L
96 1621 M 96 1637 L
101 1705 M 96 1707 L
105 1707 L
101 1705 L
98 1703 L
96 1699 L
96 1691 L
98 1687 L
101 1685 L
105 1685 L
106 1687 L
109 1691 L
113 1701 L
115 1705 L
117 1707 L
102 1685 M 105 1687 L
106 1691 L
110 1701 L
113 1705 L
115 1707 L
121 1707 L
123 1705 L
125 1701 L
125 1693 L
123 1689 L
121 1687 L
117 1685 L
125 1685 L
121 1687 L
102 1743 M 105 1741 L
106 1743 L
105 1745 L
102 1745 L
98 1741 L
96 1737 L
96 1731 L
98 1725 L
102 1721 L
CS M
109 1719 L
113 1719 L
119 1721 L
123 1725 L
125 1731 L
125 1735 L
123 1741 L
119 1745 L
96 1731 M 98 1727 L
102 1723 L
109 1721 L
113 1721 L
119 1723 L
123 1727 L
125 1731 L
101 1761 M 102 1761 L
102 1759 L
101 1759 L
98 1761 L
96 1765 L
96 1773 L
98 1777 L
101 1779 L
105 1781 L
119 1781 L
123 1783 L
125 1785 L
101 1779 M 119 1779 L
123 1781 L
125 1785 L
125 1787 L
105 1779 M 106 1777 L
109 1765 L
110 1759 L
115 1757 L
119 1757 L
123 1759 L
125 1765 L
125 1771 L
123 1775 L
119 1779 L
109 1765 M 110 1761 L
115 1759 L
119 1759 L
123 1761 L
125 1765 L
82 1801 M 125 1801 L
82 1803 M 125 1803 L
82 1795 M 82 1803 L
125 1795 M 125 1809 L
109 1821 M 109 1845 L
105 1845 L
101 1843 L
98 1841 L
96 1837 L
96 1831 L
98 1825 L
102 1821 L
109 1819 L
113 1819 L
119 1821 L
123 1825 L
125 1831 L
125 1835 L
123 1841 L
119 1845 L
109 1843 M 102 1843 L
98 1841 L
96 1831 M 98 1827 L
102 1823 L
109 1821 L
113 1821 L
119 1823 L
123 1827 L
125 1831 L
101 1877 M 96 1879 L
105 1879 L
101 1877 L
98 1875 L
96 1871 L
96 1863 L
98 1859 L
101 1857 L
105 1857 L
106 1859 L
109 1863 L
113 1873 L
115 1877 L
117 1879 L
102 1857 M 105 1859 L
106 1863 L
110 1873 L
113 1877 L
115 1879 L
121 1879 L
123 1877 L
125 1873 L
125 1865 L
123 1861 L
121 1859 L
117 1857 L
125 1857 L
121 1859 L
CS [] 0 setdash M
stroke
grestore
showpage
end
