%!PS-Adobe-2.0 EPSF-2.0
%%Creator: SM
%%BoundingBox: 18 144 592 718
%%DocumentFonts: Helvetica
%%EndComments
 20 dict begin
72 300 div dup scale
1 setlinejoin 0 setlinecap
/Courier findfont 55 scalefont setfont 
/B { currentpoint stroke newpath moveto } def
/F { moveto 0 setlinecap} def
/C { CS M 1 1 3 { pop 3 1 roll 255 div } for SET_COLOUR } def
/CS { currentpoint stroke } def
/CF { currentpoint fill } def
/L { lineto } def /M { moveto } def
/P { moveto 0 1 rlineto stroke } def
/T { currentlinecap exch 1 setlinecap show setlinecap } def
errordict /nocurrentpoint { pop 0 0 M currentpoint } put
/SET_COLOUR { setrgbcolor } def
 80 600 translate
gsave
CS [] 0 setdash M
CS M 1 100 mul 72 div dup setlinewidth
/P [ /moveto cvx 0 5 -1 roll .05 add dup -2 div 0 exch /rmoveto cvx /rlineto cvx /stroke cvx ] cvx def
 0 0 0 C
 0 0 0 C
CS [] 0 setdash M
292 292 M 2188 292 L
2188 2188 L
292 2188 L
292 292 L
2188 292 L
292 292 M 2188 292 L
292 292 M 292 334 L
272 213 M 290 255 M 284 253 L
280 247 L
278 237 L
278 231 L
280 221 L
284 215 L
290 213 L
294 213 L
300 215 L
304 221 L
306 231 L
306 237 L
304 247 L
300 253 L
294 255 L
290 255 L
286 253 L
284 251 L
282 247 L
280 237 L
280 231 L
282 221 L
284 217 L
286 215 L
290 213 L
294 213 M 298 215 L
300 217 L
302 221 L
304 231 L
304 237 L
302 247 L
300 251 L
298 253 L
294 255 L
450 292 M 450 313 L
608 292 M 608 313 L
766 292 M 766 313 L
924 292 M 924 334 L
904 213 M 912 247 M 914 245 L
912 243 L
910 245 L
910 247 L
912 251 L
914 253 L
920 255 L
928 255 L
934 253 L
936 251 L
938 247 L
938 243 L
936 239 L
930 235 L
920 231 L
916 229 L
912 225 L
910 219 L
910 213 L
928 255 M 932 253 L
934 251 L
936 247 L
936 243 L
934 239 L
928 235 L
920 231 L
910 217 M 912 219 L
916 219 L
926 215 L
932 215 L
936 217 L
938 219 L
916 219 M 926 213 L
934 213 L
936 215 L
938 219 L
938 223 L
1082 292 M 1082 313 L
1240 292 M 1240 313 L
1398 292 M 1398 313 L
1556 292 M 1556 334 L
1536 213 M 1560 251 M 1560 213 L
1562 255 M 1562 213 L
1562 255 M 1540 225 L
1572 225 L
1554 213 M 1568 213 L
1714 292 M 1714 313 L
1872 292 M 1872 313 L
2030 292 M 2030 313 L
2188 292 M 2188 334 L
2168 213 M 2198 249 M 2196 247 L
2198 245 L
2200 247 L
2200 249 L
2198 253 L
2194 255 L
2188 255 L
2182 253 L
2178 249 L
2176 245 L
2174 237 L
2174 225 L
2176 219 L
2180 215 L
2186 213 L
2190 213 L
2196 215 L
2200 219 L
2202 225 L
2202 227 L
2200 233 L
2196 237 L
2190 239 L
2188 239 L
2182 237 L
2178 233 L
2176 227 L
2188 255 M 2184 253 L
2180 249 L
2178 245 L
2176 237 L
2176 225 L
2178 219 L
2182 215 L
2186 213 L
2190 213 M 2194 215 L
2198 219 L
2200 225 L
2200 227 L
2198 233 L
2194 237 L
2190 239 L
292 2188 M 2188 2188 L
292 2188 M 292 2145 L
450 2188 M 450 2167 L
608 2188 M 608 2167 L
766 2188 M 766 2167 L
924 2188 M 924 2145 L
1082 2188 M 1082 2167 L
1240 2188 M 1240 2167 L
1398 2188 M 1398 2167 L
1556 2188 M 1556 2145 L
1714 2188 M 1714 2167 L
1872 2188 M 1872 2167 L
2030 2188 M 2030 2167 L
2188 2188 M 2188 2145 L
292 292 M 292 2188 L
292 292 M 334 292 L
155 271 M 173 313 M 167 311 L
163 305 L
161 295 L
161 289 L
163 279 L
167 273 L
173 271 L
177 271 L
183 273 L
187 279 L
189 289 L
189 295 L
187 305 L
183 311 L
177 313 L
173 313 L
169 311 L
167 309 L
165 305 L
163 295 L
163 289 L
165 279 L
167 275 L
169 273 L
173 271 L
177 271 M 181 273 L
183 275 L
185 279 L
187 289 L
187 295 L
185 305 L
183 309 L
181 311 L
177 313 L
205 275 M 203 273 L
205 271 L
207 273 L
205 275 L
227 305 M 231 307 L
237 313 L
237 271 L
235 311 M 235 271 L
227 271 M 245 271 L
292 406 M 313 406 L
292 473 M 313 473 L
292 520 M 313 520 L
292 557 M 313 557 L
292 587 M 313 587 L
292 612 M 313 612 L
292 634 M 313 634 L
292 654 M 313 654 L
292 671 M 334 671 L
215 650 M 227 684 M 231 686 L
237 692 L
237 650 L
235 690 M 235 650 L
227 650 M 245 650 L
292 785 M 313 785 L
292 852 M 313 852 L
292 899 M 313 899 L
292 936 M 313 936 L
292 966 M 313 966 L
292 992 M 313 992 L
292 1014 M 313 1014 L
292 1033 M 313 1033 L
292 1050 M 334 1050 L
175 1029 M 187 1063 M 191 1065 L
197 1071 L
197 1029 L
195 1069 M 195 1029 L
187 1029 M 205 1029 L
233 1071 M 227 1069 L
223 1063 L
221 1053 L
221 1047 L
223 1037 L
227 1031 L
233 1029 L
237 1029 L
243 1031 L
247 1037 L
249 1047 L
249 1053 L
247 1063 L
243 1069 L
237 1071 L
233 1071 L
229 1069 L
227 1067 L
225 1063 L
223 1053 L
223 1047 L
225 1037 L
227 1033 L
229 1031 L
233 1029 L
237 1029 M 241 1031 L
243 1033 L
245 1037 L
247 1047 L
247 1053 L
245 1063 L
243 1067 L
241 1069 L
237 1071 L
292 1164 M 313 1164 L
292 1231 M 313 1231 L
292 1279 M 313 1279 L
292 1315 M 313 1315 L
292 1345 M 313 1345 L
292 1371 M 313 1371 L
292 1393 M 313 1393 L
292 1412 M 313 1412 L
292 1430 M 334 1430 L
151 1407 M 163 1441 M 167 1443 L
173 1449 L
173 1407 L
171 1447 M 171 1407 L
163 1407 M 181 1407 L
209 1449 M 203 1447 L
199 1441 L
197 1431 L
197 1425 L
199 1415 L
203 1409 L
209 1407 L
213 1407 L
219 1409 L
223 1415 L
225 1425 L
225 1431 L
223 1441 L
219 1447 L
213 1449 L
209 1449 L
205 1447 L
203 1445 L
201 1441 L
199 1431 L
199 1425 L
201 1415 L
203 1411 L
205 1409 L
209 1407 L
213 1407 M 217 1409 L
219 1411 L
221 1415 L
CS M
223 1425 L
223 1431 L
221 1441 L
219 1445 L
217 1447 L
213 1449 L
236 1447 M 237 1446 L
236 1445 L
235 1446 L
235 1447 L
236 1449 L
237 1451 L
241 1452 L
246 1452 L
249 1451 L
251 1449 L
252 1447 L
252 1445 L
251 1442 L
247 1440 L
241 1437 L
239 1436 L
236 1434 L
235 1430 L
235 1427 L
246 1452 M 248 1451 L
249 1449 L
251 1447 L
251 1445 L
249 1442 L
246 1440 L
241 1437 L
235 1429 M 236 1430 L
239 1430 L
245 1428 L
248 1428 L
251 1429 L
252 1430 L
239 1430 M 245 1427 L
249 1427 L
251 1428 L
252 1430 L
252 1433 L
292 1544 M 313 1544 L
292 1611 M 313 1611 L
292 1658 M 313 1658 L
292 1695 M 313 1695 L
292 1725 M 313 1725 L
292 1750 M 313 1750 L
292 1772 M 313 1772 L
292 1791 M 313 1791 L
292 1809 M 334 1809 L
151 1787 M 163 1821 M 167 1823 L
173 1829 L
173 1787 L
171 1827 M 171 1787 L
163 1787 M 181 1787 L
209 1829 M 203 1827 L
199 1821 L
197 1811 L
197 1805 L
199 1795 L
203 1789 L
209 1787 L
213 1787 L
219 1789 L
223 1795 L
225 1805 L
225 1811 L
223 1821 L
219 1827 L
213 1829 L
209 1829 L
205 1827 L
203 1825 L
201 1821 L
199 1811 L
199 1805 L
201 1795 L
203 1791 L
205 1789 L
209 1787 L
213 1787 M 217 1789 L
219 1791 L
221 1795 L
223 1805 L
223 1811 L
221 1821 L
219 1825 L
217 1827 L
213 1829 L
236 1826 M 237 1825 L
236 1824 L
235 1825 L
235 1826 L
236 1829 L
237 1830 L
241 1831 L
246 1831 L
249 1830 L
251 1828 L
251 1824 L
249 1821 L
246 1820 L
242 1820 L
246 1831 M 248 1830 L
249 1828 L
249 1824 L
248 1821 L
246 1820 L
248 1819 L
251 1817 L
252 1814 L
252 1811 L
251 1808 L
249 1807 L
246 1806 L
241 1806 L
237 1807 L
236 1808 L
235 1811 L
235 1812 L
236 1813 L
237 1812 L
236 1811 L
249 1818 M 251 1814 L
251 1811 L
249 1808 L
248 1807 L
246 1806 L
292 1923 M 313 1923 L
292 1990 M 313 1990 L
292 2037 M 313 2037 L
292 2074 M 313 2074 L
292 2104 M 313 2104 L
292 2129 M 313 2129 L
292 2151 M 313 2151 L
292 2171 M 313 2171 L
292 2188 M 334 2188 L
151 2166 M 163 2200 M 167 2202 L
173 2208 L
173 2166 L
171 2206 M 171 2166 L
163 2166 M 181 2166 L
209 2208 M 203 2206 L
199 2200 L
197 2190 L
197 2184 L
199 2174 L
203 2168 L
209 2166 L
213 2166 L
219 2168 L
223 2174 L
225 2184 L
225 2190 L
223 2200 L
219 2206 L
213 2208 L
209 2208 L
205 2206 L
203 2204 L
201 2200 L
199 2190 L
199 2184 L
201 2174 L
203 2170 L
205 2168 L
209 2166 L
213 2166 M 217 2168 L
219 2170 L
221 2174 L
223 2184 L
223 2190 L
221 2200 L
219 2204 L
217 2206 L
213 2208 L
246 2208 M 246 2185 L
247 2210 M 247 2185 L
247 2210 M 234 2192 L
253 2192 L
242 2185 M 251 2185 L
2188 292 M 2188 2188 L
2188 292 M 2145 292 L
2188 406 M 2167 406 L
2188 473 M 2167 473 L
2188 520 M 2167 520 L
2188 557 M 2167 557 L
2188 587 M 2167 587 L
2188 612 M 2167 612 L
2188 634 M 2167 634 L
2188 654 M 2167 654 L
2188 671 M 2145 671 L
2188 785 M 2167 785 L
2188 852 M 2167 852 L
2188 899 M 2167 899 L
2188 936 M 2167 936 L
2188 966 M 2167 966 L
2188 992 M 2167 992 L
2188 1014 M 2167 1014 L
2188 1033 M 2167 1033 L
2188 1050 M 2145 1050 L
2188 1164 M 2167 1164 L
2188 1231 M 2167 1231 L
2188 1279 M 2167 1279 L
2188 1315 M 2167 1315 L
2188 1345 M 2167 1345 L
2188 1371 M 2167 1371 L
2188 1393 M 2167 1393 L
2188 1412 M 2167 1412 L
2188 1430 M 2145 1430 L
2188 1544 M 2167 1544 L
2188 1611 M 2167 1611 L
2188 1658 M 2167 1658 L
2188 1695 M 2167 1695 L
2188 1725 M 2167 1725 L
2188 1750 M 2167 1750 L
2188 1772 M 2167 1772 L
2188 1791 M 2167 1791 L
2188 1809 M 2145 1809 L
2188 1923 M 2167 1923 L
2188 1990 M 2167 1990 L
2188 2037 M 2167 2037 L
2188 2074 M 2167 2074 L
2188 2104 M 2167 2104 L
2188 2129 M 2167 2129 L
2188 2151 M 2167 2151 L
2188 2171 M 2167 2171 L
2188 2188 M 2145 2188 L
CS [] 0 setdash M
 0 0 0 C
611 1818 M 617 1822 L
619 1829 L
617 1836 L
611 1840 L
604 1840 L
598 1836 L
596 1829 L
598 1822 L
604 1818 L
611 1818 L
927 1620 M 933 1624 L
935 1631 L
933 1638 L
927 1642 L
920 1642 L
914 1638 L
912 1631 L
914 1624 L
920 1620 L
927 1620 L
1244 1229 M 1249 1233 L
1252 1240 L
1249 1247 L
1244 1251 L
1236 1251 L
1230 1247 L
1228 1240 L
1230 1233 L
1236 1229 L
1244 1229 L
1560 688 M 1565 692 L
1568 699 L
1565 706 L
1560 710 L
1552 710 L
1546 706 L
1544 699 L
1546 692 L
1552 688 L
1560 688 L
1718 367 M 1723 371 L
1726 378 L
1723 385 L
1718 389 L
1710 389 L
1705 385 L
1702 378 L
1705 371 L
1710 367 L
1718 367 L
 0 0 0 C
B
611 1805 M 617 1809 L
619 1816 L
617 1823 L
611 1827 L
604 1827 L
598 1823 L
596 1816 L
598 1809 L
604 1805 L
611 1805 L
CF M
B
927 1611 M 933 1616 L
935 1623 L
933 1629 L
927 1634 L
920 1634 L
914 1629 L
912 1623 L
914 1616 L
920 1611 L
927 1611 L
CF M
B
1244 1250 M 1249 1254 L
1252 1261 L
1249 1268 L
1244 1272 L
1236 1272 L
1230 1268 L
1228 1261 L
1230 1254 L
1236 1250 L
1244 1250 L
CF M
B
1560 709 M 1565 713 L
1568 720 L
1565 727 L
1560 731 L
1552 731 L
1547 727 L
1544 720 L
1547 713 L
1552 709 L
1560 709 L
CF M
B
1718 357 M 1723 362 L
1726 368 L
1723 375 L
1718 380 L
1710 380 L
1705 375 L
1702 368 L
1705 362 L
1710 357 L
1718 357 L
CF M
 255 0 0 C
B
611 1803 M 617 1807 L
619 1814 L
617 1821 L
611 1825 L
604 1825 L
598 1821 L
596 1814 L
598 1807 L
604 1803 L
611 1803 L
CF M
B
927 1611 M 933 1616 L
935 1623 L
933 1629 L
927 1634 L
920 1634 L
914 1629 L
912 1623 L
914 1616 L
920 1612 L
927 1612 L
CF M
B
1244 1253 M 1249 1257 L
1252 1264 L
1249 1271 L
1244 1275 L
1236 1275 L
1230 1271 L
1228 1264 L
1230 1257 L
1236 1253 L
1244 1253 L
CF M
B
1560 716 M 1565 720 L
1568 727 L
1565 734 L
1560 738 L
1552 738 L
1547 734 L
1544 727 L
1547 720 L
1552 716 L
1560 716 L
CF M
B
1718 380 M 1723 384 L
1726 391 L
1723 398 L
1718 402 L
1710 402 L
1705 398 L
1702 391 L
1705 384 L
1710 380 L
1718 380 L
CF M
 0 0 255 C
B
611 1789 M 617 1793 L
619 1800 L
617 1807 L
611 1811 L
604 1811 L
598 1807 L
596 1800 L
598 1793 L
604 1789 L
611 1789 L
CF M
B
927 1600 M 933 1604 L
935 1611 L
933 1618 L
927 1622 L
920 1622 L
914 1618 L
912 1611 L
914 1604 L
920 1600 L
927 1600 L
CF M
B
1244 1257 M 1249 1261 L
1252 1268 L
1249 1275 L
1244 1279 L
1236 1279 L
1230 1275 L
1228 1268 L
1230 1261 L
1236 1257 L
1244 1257 L
CF M
B
1560 702 M 1565 707 L
1568 714 L
1565 720 L
1560 725 L
1552 725 L
1547 720 L
1544 714 L
1547 707 L
1552 702 L
1560 702 L
CF M
B
1718 354 M 1723 358 L
1726 365 L
1723 372 L
1718 376 L
1710 376 L
1705 372 L
1702 365 L
1705 358 L
1710 354 L
1718 354 L
CF M
 0 255 0 C
B
611 1787 M 617 1791 L
619 1798 L
617 1805 L
611 1809 L
604 1809 L
598 1805 L
596 1798 L
598 1791 L
604 1787 L
611 1787 L
CF M
B
927 1595 M 933 1599 L
935 1606 L
933 1613 L
927 1617 L
920 1617 L
914 1613 L
912 1606 L
914 1599 L
920 1595 L
927 1595 L
CF M
B
1244 1254 M 1249 1259 L
1252 1266 L
1249 1272 L
1244 1277 L
1236 1277 L
1230 1272 L
1228 1266 L
1230 1259 L
1236 1255 L
1244 1255 L
CF M
B
1560 717 M 1565 721 L
1568 728 L
1565 735 L
1560 739 L
1552 739 L
1547 735 L
1544 728 L
1547 721 L
1552 717 L
1560 717 L
CF M
B
1718 401 M 1723 405 L
1726 412 L
1723 419 L
1718 423 L
1710 423 L
1705 419 L
1702 412 L
1705 405 L
1710 401 L
1718 401 L
CF M
 0 0 0 C
CS [] 0 setdash M
95 846 M 53 855 M 95 847 L
53 857 M 91 873 L
57 856 M 95 873 L
53 881 M 95 873 L
53 849 M 53 857 L
53 875 M 53 887 L
95 841 M 95 853 L
91 904 M 92 903 L
93 904 L
92 905 L
91 905 L
89 904 L
89 902 L
91 899 L
93 898 L
115 898 L
89 902 M 91 900 L
93 899 L
115 899 L
98 894 M 98 904 L
115 894 M 115 903 L
100 914 M 101 914 L
101 912 L
100 912 L
99 914 L
98 916 L
98 921 L
99 923 L
100 924 L
103 926 L
111 926 L
113 927 L
115 928 L
100 924 M 111 924 L
113 926 L
115 928 L
115 929 L
103 924 M 104 923 L
105 916 L
106 912 L
109 911 L
111 911 L
113 912 L
115 916 L
115 920 L
113 922 L
111 924 L
105 916 M 106 914 L
109 912 L
111 912 L
113 914 L
115 916 L
89 938 M 115 938 L
89 939 M 115 939 L
89 934 M 89 939 L
115 934 M 115 942 L
100 960 M 98 962 L
103 962 L
100 960 L
99 959 L
98 957 L
98 952 L
99 950 L
100 948 L
103 948 L
104 950 L
105 952 L
108 958 L
109 960 L
110 962 L
101 948 M 103 950 L
104 952 L
106 958 L
108 960 L
109 962 L
112 962 L
113 960 L
115 958 L
115 953 L
113 951 L
112 950 L
110 948 L
115 948 L
112 950 L
105 970 M 105 984 L
103 984 L
100 983 L
99 982 L
98 980 L
98 976 L
99 972 L
101 970 L
105 969 L
108 969 L
111 970 L
113 972 L
115 976 L
115 978 L
113 982 L
111 984 L
105 983 M 101 983 L
99 982 L
98 976 M 99 974 L
101 971 L
105 970 L
108 970 L
111 971 L
113 974 L
115 976 L
67 1030 M 109 1030 L
67 1032 M 109 1032 L
73 1032 M 69 1036 L
67 1040 L
67 1044 L
69 1050 L
73 1054 L
79 1056 L
83 1056 L
89 1054 L
93 1050 L
95 1044 L
95 1040 L
93 1036 L
89 1032 L
67 1044 M 69 1048 L
73 1052 L
79 1054 L
83 1054 L
89 1052 L
93 1048 L
95 1044 L
67 1024 M 67 1032 L
109 1024 M 109 1038 L
79 1070 M 79 1094 L
75 1094 L
71 1092 L
69 1090 L
67 1086 L
67 1080 L
69 1074 L
73 1070 L
79 1068 L
83 1068 L
89 1070 L
93 1074 L
95 1080 L
95 1084 L
93 1090 L
89 1094 L
79 1092 M 73 1092 L
69 1090 L
67 1080 M 69 1076 L
73 1072 L
79 1070 L
83 1070 L
89 1072 L
93 1076 L
95 1080 L
67 1110 M 95 1110 L
67 1112 M 95 1112 L
79 1112 M 73 1114 L
69 1118 L
67 1122 L
67 1128 L
69 1130 L
71 1130 L
73 1128 L
71 1126 L
69 1128 L
67 1104 M 67 1112 L
95 1104 M 95 1118 L
53 1176 M 73 1172 L
69 1176 L
67 1183 L
67 1189 L
69 1195 L
73 1199 L
79 1201 L
83 1201 L
89 1199 L
93 1195 L
95 1189 L
95 1183 L
93 1176 L
91 1175 L
87 1172 L
85 1172 L
83 1175 L
85 1176 L
87 1175 L
67 1189 M 69 1193 L
73 1197 L
79 1199 L
83 1199 L
89 1197 L
93 1193 L
95 1189 L
53 1176 M 53 1197 L
55 1176 M 55 1187 L
53 1197 L
61 1219 M 59 1223 L
53 1229 L
95 1229 L
55 1227 M 95 1227 L
95 1219 M 95 1237 L
61 1255 M 63 1257 L
65 1255 L
63 1253 L
61 1253 L
57 1255 L
55 1257 L
53 1263 L
53 1271 L
55 1277 L
57 1279 L
61 1281 L
65 1281 L
69 1279 L
73 1273 L
77 1263 L
79 1259 L
83 1255 L
89 1253 L
95 1253 L
53 1271 M 55 1275 L
57 1277 L
61 1279 L
65 1279 L
69 1277 L
73 1271 L
77 1263 L
91 1253 M 89 1255 L
89 1259 L
93 1269 L
93 1275 L
91 1279 L
89 1281 L
89 1259 M 95 1269 L
95 1277 L
93 1279 L
89 1281 L
85 1281 L
63 1295 M 91 1323 L
63 1323 M 91 1295 L
53 1341 M 73 1337 L
69 1341 L
67 1347 L
67 1353 L
69 1359 L
73 1363 L
79 1365 L
83 1365 L
89 1363 L
93 1359 L
95 1353 L
95 1347 L
93 1341 L
91 1339 L
87 1337 L
85 1337 L
83 1339 L
85 1341 L
87 1339 L
67 1353 M 69 1357 L
73 1361 L
79 1363 L
83 1363 L
89 1361 L
93 1357 L
95 1353 L
53 1341 M 53 1361 L
55 1341 M 55 1351 L
53 1361 L
61 1383 M 59 1387 L
53 1393 L
95 1393 L
55 1391 M 95 1391 L
95 1383 M 95 1401 L
61 1419 M 63 1421 L
65 1419 L
63 1417 L
61 1417 L
57 1419 L
55 1421 L
53 1427 L
53 1435 L
55 1441 L
57 1443 L
61 1445 L
65 1445 L
69 1443 L
73 1437 L
77 1427 L
79 1423 L
83 1419 L
89 1417 L
95 1417 L
53 1435 M 55 1439 L
57 1441 L
61 1443 L
CS M
65 1443 L
69 1441 L
73 1435 L
77 1427 L
91 1417 M 89 1419 L
89 1423 L
93 1433 L
93 1439 L
91 1443 L
89 1445 L
89 1423 M 95 1433 L
95 1441 L
93 1443 L
89 1445 L
85 1445 L
55 1503 M 57 1501 L
59 1503 L
57 1505 L
55 1505 L
53 1503 L
53 1499 L
55 1495 L
59 1493 L
95 1493 L
53 1499 M 55 1497 L
59 1495 L
95 1495 L
67 1487 M 67 1503 L
95 1487 M 95 1501 L
53 1519 M 55 1517 L
57 1519 L
55 1521 L
53 1519 L
67 1519 M 95 1519 L
67 1521 M 95 1521 L
67 1513 M 67 1521 L
95 1513 M 95 1527 L
79 1539 M 79 1564 L
75 1564 L
71 1562 L
69 1560 L
67 1556 L
67 1549 L
69 1543 L
73 1539 L
79 1537 L
83 1537 L
89 1539 L
93 1543 L
95 1549 L
95 1553 L
93 1560 L
89 1564 L
79 1562 M 73 1562 L
69 1560 L
67 1549 M 69 1545 L
73 1541 L
79 1539 L
83 1539 L
89 1541 L
93 1545 L
95 1549 L
53 1580 M 95 1580 L
53 1582 M 95 1582 L
53 1574 M 53 1582 L
95 1574 M 95 1588 L
53 1622 M 95 1622 L
53 1624 M 95 1624 L
73 1622 M 69 1618 L
67 1614 L
67 1610 L
69 1604 L
73 1600 L
79 1598 L
83 1598 L
89 1600 L
93 1604 L
95 1610 L
95 1614 L
93 1618 L
89 1622 L
67 1610 M 69 1606 L
73 1602 L
79 1600 L
83 1600 L
89 1602 L
93 1606 L
95 1610 L
53 1616 M 53 1624 L
95 1622 M 95 1630 L
CS [] 0 setdash M
CS [] 0 setdash M
989 135 M 1027 163 M 1007 163 L
1001 161 L
997 155 L
995 149 L
995 143 L
997 139 L
999 137 L
1003 135 L
1007 135 L
1013 137 L
1017 143 L
1019 149 L
1019 155 L
1017 159 L
1015 161 L
1011 163 L
1007 163 M 1003 161 L
999 155 L
997 149 L
997 141 L
999 137 L
1007 135 M 1011 137 L
1015 143 L
1017 149 L
1017 157 L
1015 161 L
1027 161 L
1039 153 M 1075 153 L
1109 159 M 1111 163 L
1111 155 L
1109 159 L
1107 161 L
1103 163 L
1095 163 L
1091 161 L
1089 159 L
1089 155 L
1091 153 L
1095 151 L
1105 147 L
1109 145 L
1111 143 L
1089 157 M 1091 155 L
1095 153 L
1105 149 L
1109 147 L
1111 145 L
1111 139 L
1109 137 L
1105 135 L
1097 135 L
1093 137 L
1091 139 L
1089 143 L
1089 135 L
1091 139 L
1127 177 M 1125 175 L
1127 173 L
1130 175 L
1127 177 L
1127 163 M 1127 135 L
1130 163 M 1130 135 L
1121 163 M 1130 163 L
1121 135 M 1135 135 L
1156 163 M 1152 161 L
1149 159 L
1148 155 L
1148 151 L
1149 147 L
1152 145 L
1156 143 L
1160 143 L
1164 145 L
1166 147 L
1168 151 L
1168 155 L
1166 159 L
1164 161 L
1160 163 L
1156 163 L
1152 161 M 1149 157 L
1149 149 L
1152 145 L
1164 145 M 1166 149 L
1166 157 L
1164 161 L
1166 159 M 1168 161 L
1172 163 L
1172 161 L
1168 161 L
1149 147 M 1148 145 L
1145 141 L
1145 139 L
1148 135 L
1153 133 L
1164 133 L
1170 131 L
1172 129 L
1145 139 M 1148 137 L
1153 135 L
1164 135 L
1170 133 L
1172 129 L
1172 127 L
1170 123 L
1164 121 L
1152 121 L
1145 123 L
1144 127 L
1144 129 L
1145 133 L
1152 135 L
1188 163 M 1188 135 L
1190 163 M 1190 135 L
1190 157 M 1194 161 L
1200 163 L
1204 163 L
1210 161 L
1212 157 L
1212 135 L
1204 163 M 1208 161 L
1210 157 L
1210 135 L
1182 163 M 1190 163 L
1182 135 M 1196 135 L
1204 135 M 1218 135 L
1232 177 M 1230 175 L
1232 173 L
1234 175 L
1232 177 L
1232 163 M 1232 135 L
1234 163 M 1234 135 L
1226 163 M 1234 163 L
1226 135 M 1240 135 L
1264 175 M 1262 173 L
1264 171 L
1266 173 L
1266 175 L
1264 177 L
1260 177 L
1256 175 L
1254 171 L
1254 135 L
1260 177 M 1258 175 L
1256 171 L
1256 135 L
1248 163 M 1264 163 L
1248 135 M 1262 135 L
1280 177 M 1278 175 L
1280 173 L
1282 175 L
1280 177 L
1280 163 M 1280 135 L
1282 163 M 1282 135 L
1274 163 M 1282 163 L
1274 135 M 1288 135 L
1322 157 M 1320 155 L
1322 153 L
1324 155 L
1324 157 L
1320 161 L
1316 163 L
1310 163 L
1304 161 L
1300 157 L
1298 151 L
1298 147 L
1300 141 L
1304 137 L
1310 135 L
1314 135 L
1320 137 L
1324 141 L
1310 163 M 1306 161 L
1302 157 L
1300 151 L
1300 147 L
1302 141 L
1306 137 L
1310 135 L
1340 159 M 1340 157 L
1338 157 L
1338 159 L
1340 161 L
1344 163 L
1352 163 L
1356 161 L
1358 159 L
1360 155 L
1360 141 L
1362 137 L
1364 135 L
1358 159 M 1358 141 L
1360 137 L
1364 135 L
1366 135 L
1358 155 M 1356 153 L
1344 151 L
1338 149 L
1336 145 L
1336 141 L
1338 137 L
1344 135 L
1350 135 L
1354 137 L
1358 141 L
1344 151 M 1340 149 L
1338 145 L
1338 141 L
1340 137 L
CS M
1344 135 L
1380 163 M 1380 135 L
1382 163 M 1382 135 L
1382 157 M 1386 161 L
1392 163 L
1396 163 L
1402 161 L
1404 157 L
1404 135 L
1396 163 M 1400 161 L
1402 157 L
1402 135 L
1374 163 M 1382 163 L
1374 135 M 1388 135 L
1396 135 M 1410 135 L
1444 157 M 1442 155 L
1444 153 L
1446 155 L
1446 157 L
1442 161 L
1438 163 L
1432 163 L
1426 161 L
1422 157 L
1420 151 L
1420 147 L
1422 141 L
1426 137 L
1432 135 L
1436 135 L
1442 137 L
1446 141 L
1432 163 M 1428 161 L
1424 157 L
1422 151 L
1422 147 L
1424 141 L
1428 137 L
1432 135 L
1460 151 M 1484 151 L
1484 155 L
1482 159 L
1480 161 L
1476 163 L
1470 163 L
1464 161 L
1460 157 L
1458 151 L
1458 147 L
1460 141 L
1464 137 L
1470 135 L
1474 135 L
1480 137 L
1484 141 L
1482 151 M 1482 157 L
1480 161 L
1470 163 M 1466 161 L
1462 157 L
1460 151 L
1460 147 L
1462 141 L
1466 137 L
1470 135 L
CS [] 0 setdash M
1268 1904 M CS [] 0 setdash M
1278 1946 M 1269 1904 L
1280 1946 M 1296 1908 L
1279 1942 M 1295 1904 L
1304 1946 M 1295 1904 L
1272 1946 M 1280 1946 L
1298 1946 M 1310 1946 L
1263 1904 M 1275 1904 L
1322 1905 M 1324 1906 L
1328 1910 L
1328 1884 L
1327 1908 M 1327 1884 L
1322 1884 M 1333 1884 L
1379 1954 M 1343 1890 L
1405 1954 M 1401 1950 L
1397 1944 L
1393 1936 L
1391 1926 L
1391 1918 L
1393 1908 L
1397 1900 L
1401 1894 L
1405 1890 L
1401 1950 M 1397 1942 L
1395 1936 L
1393 1926 L
1393 1918 L
1395 1908 L
1397 1902 L
1401 1894 L
1423 1938 M 1427 1940 L
1433 1946 L
1433 1904 L
1431 1944 M 1431 1904 L
1423 1904 M 1441 1904 L
1461 1946 M 1457 1926 L
1461 1930 L
1467 1932 L
1473 1932 L
1479 1930 L
1483 1926 L
1485 1920 L
1485 1916 L
1483 1910 L
1479 1906 L
1473 1904 L
1467 1904 L
1461 1906 L
1459 1908 L
1457 1912 L
1457 1914 L
1459 1916 L
1461 1914 L
1459 1912 L
1473 1932 M 1477 1930 L
1481 1926 L
1483 1920 L
1483 1916 L
1481 1910 L
1477 1906 L
1473 1904 L
1461 1946 M 1481 1946 L
1461 1944 M 1471 1944 L
1481 1946 L
1499 1936 M 1527 1908 L
1527 1936 M 1499 1908 L
1547 1938 M 1551 1940 L
1557 1946 L
1557 1904 L
1555 1944 M 1555 1904 L
1547 1904 M 1565 1904 L
1585 1908 M 1583 1906 L
1585 1904 L
1587 1906 L
1585 1908 L
1619 1942 M 1619 1904 L
1621 1946 M 1621 1904 L
1621 1946 M 1599 1916 L
1631 1916 L
1613 1904 M 1627 1904 L
1641 1954 M 1645 1950 L
1649 1944 L
1653 1936 L
1656 1926 L
1656 1918 L
1653 1908 L
1649 1900 L
1645 1894 L
1641 1890 L
1645 1950 M 1649 1942 L
1652 1936 L
1653 1926 L
1653 1918 L
1652 1908 L
1649 1902 L
1645 1894 L
1663 1904 M CS [] 0 setdash M
1268 1809 M CS [] 0 setdash M
1278 1851 M 1269 1809 L
1280 1851 M 1296 1813 L
1279 1847 M 1295 1809 L
1304 1851 M 1295 1809 L
1272 1851 M 1280 1851 L
1298 1851 M 1310 1851 L
1263 1809 M 1275 1809 L
1319 1810 M 1321 1809 L
1319 1808 L
1318 1809 L
1318 1810 L
1319 1812 L
1321 1814 L
1324 1815 L
1329 1815 L
1333 1814 L
1334 1812 L
1335 1810 L
1335 1808 L
1334 1805 L
1330 1803 L
1324 1800 L
1322 1799 L
1319 1797 L
1318 1793 L
1318 1790 L
1329 1815 M 1331 1814 L
1333 1812 L
1334 1810 L
1334 1808 L
1333 1805 L
1329 1803 L
1324 1800 L
1318 1792 M 1319 1793 L
1322 1793 L
1328 1791 L
1331 1791 L
1334 1792 L
1335 1793 L
1322 1793 M 1328 1790 L
1333 1790 L
1334 1791 L
1335 1793 L
1335 1796 L
1379 1859 M 1343 1795 L
1405 1859 M 1401 1855 L
1397 1849 L
1393 1841 L
1391 1831 L
1391 1823 L
1393 1813 L
1397 1805 L
1401 1799 L
1405 1795 L
1401 1855 M 1397 1847 L
1395 1841 L
1393 1831 L
1393 1823 L
1395 1813 L
1397 1807 L
1401 1799 L
1423 1843 M 1427 1845 L
1433 1851 L
1433 1809 L
1431 1849 M 1431 1809 L
1423 1809 M 1441 1809 L
1461 1813 M 1459 1811 L
1461 1809 L
1463 1811 L
1461 1813 L
1495 1847 M 1495 1809 L
1497 1851 M 1497 1809 L
1497 1851 M 1475 1821 L
1507 1821 L
1489 1809 M 1503 1809 L
1517 1859 M 1521 1855 L
1525 1849 L
1529 1841 L
1531 1831 L
1531 1823 L
1529 1813 L
1525 1805 L
1521 1799 L
1517 1795 L
1521 1855 M 1525 1847 L
1527 1841 L
1529 1831 L
1529 1823 L
1527 1813 L
1525 1807 L
1521 1799 L
1539 1809 M CS [] 0 setdash M
1268 1714 M CS [] 0 setdash M
1278 1756 M 1269 1714 L
1280 1756 M 1296 1718 L
1279 1752 M 1295 1714 L
1304 1756 M 1295 1714 L
1272 1756 M 1280 1756 L
1298 1756 M 1310 1756 L
1263 1714 M 1275 1714 L
1329 1718 M 1329 1695 L
1330 1720 M 1330 1695 L
1330 1720 M 1317 1702 L
1336 1702 L
1325 1695 M 1334 1695 L
1347 1746 M 1375 1718 L
1375 1746 M 1347 1718 L
1407 1752 M 1407 1714 L
1409 1756 M 1409 1714 L
1409 1756 M 1387 1726 L
1419 1726 L
1401 1714 M 1415 1714 L
1423 1714 M CS [] 0 setdash M
1268 1619 M CS [] 0 setdash M
1278 1661 M 1269 1619 L
1280 1661 M 1296 1623 L
1279 1657 M 1295 1619 L
1304 1661 M 1295 1619 L
1272 1661 M 1280 1661 L
1298 1661 M 1310 1661 L
1263 1619 M 1275 1619 L
1321 1625 M 1318 1613 L
1321 1616 L
1324 1617 L
1328 1617 L
1331 1616 L
1334 1613 L
1335 1610 L
1335 1607 L
1334 1604 L
1331 1601 L
1328 1600 L
1324 1600 L
1321 1601 L
1319 1602 L
1318 1605 L
1318 1606 L
1319 1607 L
1321 1606 L
1319 1605 L
1328 1617 M 1330 1616 L
1333 1613 L
1334 1610 L
1334 1607 L
1333 1604 L
CS M
1330 1601 L
1328 1600 L
1321 1625 M 1333 1625 L
1321 1624 M 1327 1624 L
1333 1625 L
1347 1651 M 1375 1623 L
1375 1651 M 1347 1623 L
1395 1653 M 1399 1655 L
1405 1661 L
1405 1619 L
1403 1659 M 1403 1619 L
1395 1619 M 1413 1619 L
1453 1655 M 1451 1653 L
1453 1651 L
1455 1653 L
1455 1655 L
1453 1659 L
1449 1661 L
1443 1661 L
1437 1659 L
1433 1655 L
1431 1651 L
1429 1643 L
1429 1631 L
1431 1625 L
1435 1621 L
1441 1619 L
1445 1619 L
1451 1621 L
1455 1625 L
1457 1631 L
1457 1633 L
1455 1639 L
1451 1643 L
1445 1645 L
1443 1645 L
1437 1643 L
1433 1639 L
1431 1633 L
1443 1661 M 1439 1659 L
1435 1655 L
1433 1651 L
1431 1643 L
1431 1631 L
1433 1625 L
1437 1621 L
1441 1619 L
1445 1619 M 1449 1621 L
1453 1625 L
1455 1631 L
1455 1633 L
1453 1639 L
1449 1643 L
1445 1645 L
1463 1619 M CS [] 0 setdash M
stroke
grestore
showpage
end
